<svg width="431" height="109" viewBox="0 0 431 109" fill="none" xmlns="http://www.w3.org/2000/svg">
<mask id="path-1-outside-1_201_2" maskUnits="userSpaceOnUse" x="-1" y="-1" width="433" height="111" fill="black">
<rect fill="white" x="-1" y="-1" width="433" height="111"/>
<path d="M38.2667 88C37.7333 87.3333 36.5778 84.7333 34.8 80.2C33.0667 75.6222 31.0222 70.4667 28.6667 64.7333C26.3556 58.9556 24.3111 54.5778 22.5333 51.6V88H0.466667V9.86667H22.5333V47.2667L39.1333 9.86667H61.3333L41.4667 46.5333C42.7556 47.4222 44.4667 49.8444 46.6 53.8C48.7333 57.7556 50.7333 61.9111 52.6 66.2667C54.4667 70.6222 56.4 75 58.4 79.4C60.4 83.7556 61.8667 86.6222 62.8 88H38.2667ZM67.0203 88V44.8667L63.0203 42.4V35.2667L77.3536 31.3333H88.487V88H67.0203ZM76.687 25.2L65.7536 14.2V11.8667L76.687 0.933332H79.2203L90.6203 11.8667V14.2L79.2203 25.2H76.687ZM113.284 89.4C107.284 89.4 103.084 87.6 100.684 84C98.3288 80.4 97.151 74.3111 97.151 65.7333V43.0667H92.551V33.8L100.418 31.3333L107.218 15.8H118.951V31.3333H129.884V43.0667H118.751V67.8667C118.751 71.4222 119.262 73.7778 120.284 74.9333C121.307 76.0889 122.884 76.6667 125.018 76.6667C125.951 76.6667 126.795 76.5556 127.551 76.3333C128.307 76.1111 128.929 75.8 129.418 75.4V84.4667C128.751 85.1333 127.884 85.8 126.818 86.4667C125.751 87.0889 123.973 87.7333 121.484 88.4C119.04 89.0667 116.307 89.4 113.284 89.4ZM164.57 82.0667L163.904 82.8C163.459 83.3333 162.77 83.9556 161.837 84.6667C160.948 85.3778 159.904 86.0889 158.704 86.8C157.548 87.5111 156.126 88.1111 154.437 88.6C152.748 89.1333 151.015 89.4 149.237 89.4C137.237 89.4 131.237 83.4667 131.237 71.6C131.237 69.2889 131.659 67.1778 132.504 65.2667C133.348 63.3111 134.437 61.6667 135.77 60.3333C137.104 59 138.704 57.8222 140.57 56.8C142.437 55.7333 144.304 54.9111 146.17 54.3333C148.081 53.7111 150.081 53.2 152.17 52.8C154.259 52.4 156.126 52.1333 157.77 52C159.415 51.8667 160.993 51.8 162.504 51.8V50.6C162.504 47.8889 161.77 45.9778 160.304 44.8667C158.881 43.7556 156.57 43.2 153.37 43.2C150.615 43.2 147.748 43.5333 144.77 44.2C141.793 44.8222 139.459 45.5778 137.77 46.4667L133.504 37.4C136.526 35.4444 140.459 33.7333 145.304 32.2667C150.148 30.7556 155.081 30 160.104 30C164.548 30 168.215 30.4444 171.104 31.3333C173.993 32.1778 176.326 33.6444 178.104 35.7333C179.926 37.7778 181.215 40.4 181.97 43.6C182.726 46.7556 183.104 50.7778 183.104 55.6667V82.8L184.97 88H166.704L164.57 82.0667ZM159.304 77.6667C159.881 77.6667 160.415 77.5556 160.904 77.3333C161.437 77.0667 161.837 76.8222 162.104 76.6C162.37 76.3333 162.504 76.2 162.504 76.2V60.2C159.793 60.2 157.637 60.9556 156.037 62.4667C154.437 63.9333 153.637 66.2222 153.637 69.3333C153.637 74.8889 155.526 77.6667 159.304 77.6667ZM214.163 89.4C210.741 89.4 207.541 89.0889 204.563 88.4667C201.63 87.8889 199.163 87.1111 197.163 86.1333C195.163 85.1556 193.519 84.2222 192.23 83.3333C190.985 82.4444 189.941 81.5556 189.096 80.6667L190.763 64.4667C192.585 66.9111 195.03 69.0444 198.096 70.8667C201.163 72.6444 204.474 73.5333 208.03 73.5333C211.585 73.5333 214.141 73.1556 215.696 72.4C217.296 71.6444 218.096 70.2667 218.096 68.2667C218.096 66.1333 217.185 64.3111 215.363 62.8C213.585 61.2889 210.496 59.4667 206.096 57.3333C204.496 56.5333 203.141 55.8222 202.03 55.2C200.919 54.5333 199.43 53.4667 197.563 52C195.741 50.4889 194.252 48.9333 193.096 47.3333C191.941 45.6889 190.919 43.6 190.03 41.0667C189.141 38.4889 188.696 35.7333 188.696 32.8C188.696 16.9333 197.652 9 215.563 9C218.407 9 221.074 9.31111 223.563 9.93334C226.096 10.5111 228.074 11.1556 229.496 11.8667C230.919 12.5778 232.207 13.4222 233.363 14.4C234.563 15.3333 235.319 16 235.63 16.4C235.941 16.7556 236.163 17.0444 236.296 17.2667L232.963 30.1333C231.23 28.0889 229.052 26.5778 226.43 25.6C223.852 24.5778 221.385 24.0667 219.03 24.0667C213.341 24.0667 210.496 25.8444 210.496 29.4C210.496 30.3333 210.674 31.1778 211.03 31.9333C211.385 32.6889 211.963 33.3778 212.763 34C213.563 34.6222 214.296 35.1556 214.963 35.6C215.674 36.0444 216.63 36.6 217.83 37.2667C219.074 37.8889 220.007 38.4 220.63 38.8C227.119 41.5556 231.874 44.8222 234.896 48.6C237.963 52.3778 239.496 56.9778 239.496 62.4C239.496 71.2 237.319 77.9111 232.963 82.5333C228.652 87.1111 222.385 89.4 214.163 89.4ZM267.96 88H246.36V12.6L242.36 10.2V4L263.76 0.666667H268.094V39.9333L268.894 38.9333C269.427 38.2222 270.205 37.3778 271.227 36.4C272.294 35.4222 273.472 34.4667 274.76 33.5333C276.049 32.5556 277.583 31.7333 279.36 31.0667C281.183 30.3556 282.96 30 284.694 30C290.783 30 295.072 31.6667 297.56 35C300.094 38.3333 301.36 43.9111 301.36 51.7333C301.36 52 301.36 52.4 301.36 52.9333C301.316 53.4667 301.294 53.8889 301.294 54.2V88H279.294V52.2667C279.427 48.0889 277.649 46 273.96 46C273.605 46 273.249 46.0222 272.894 46.0667C272.583 46.1111 272.249 46.2222 271.894 46.4C271.538 46.5778 271.249 46.7111 271.027 46.8C270.849 46.8889 270.56 47.0667 270.16 47.3333C269.805 47.6 269.56 47.7778 269.427 47.8667C269.338 47.9556 269.072 48.1778 268.627 48.5333C268.227 48.8889 268.005 49.0889 267.96 49.1333V88ZM336.398 81.4C338.354 81.4 339.843 80.6 340.865 79C341.932 77.3556 342.465 75.1111 342.465 72.2667V51.2C342.465 42.5333 340.421 38.2 336.332 38.2C334.421 38.2 332.932 38.9778 331.865 40.5333C330.798 42.0889 330.265 44.2889 330.265 47.1333V68.8C330.265 77.2 332.31 81.4 336.398 81.4ZM335.865 89.4C325.687 89.4 318.243 87.0889 313.532 82.4667C308.821 77.8444 306.465 70.4667 306.465 60.3333C306.465 50.2889 308.843 42.7333 313.598 37.6667C318.354 32.5556 326.087 30 336.798 30C347.243 30 354.776 32.4444 359.398 37.3333C364.065 42.1778 366.398 49.5333 366.398 59.4C366.398 69.6222 363.932 77.1778 358.998 82.0667C354.11 86.9556 346.398 89.4 335.865 89.4ZM407.794 88C405.216 88 402.861 87.7333 400.728 87.2C398.594 86.6667 396.728 86 395.128 85.2V108.133H373.661V44.8667L369.661 42.4V35.2667L383.994 31.3333H395.128V35.8C396.728 34.1556 398.661 32.7778 400.928 31.6667C403.194 30.5556 405.839 30 408.861 30C416.194 30 421.572 32.5111 424.994 37.5333C428.461 42.5556 430.194 49.5111 430.194 58.4C430.194 62.5778 429.728 66.4444 428.794 70C427.861 73.5111 426.483 76.6222 424.661 79.3333C422.839 82.0444 420.483 84.1778 417.594 85.7333C414.75 87.2444 411.483 88 407.794 88ZM397.994 78.7333C403.95 78.7333 406.928 74.1778 406.928 65.0667V53.7333C406.928 49.7333 406.239 46.7556 404.861 44.8C403.528 42.8444 401.794 41.8667 399.661 41.8667C398.194 41.8667 396.683 42.3111 395.128 43.2V78.4C395.661 78.5333 396.15 78.6222 396.594 78.6667C397.083 78.7111 397.55 78.7333 397.994 78.7333Z"/>
</mask>
<path d="M38.2667 88C37.7333 87.3333 36.5778 84.7333 34.8 80.2C33.0667 75.6222 31.0222 70.4667 28.6667 64.7333C26.3556 58.9556 24.3111 54.5778 22.5333 51.6V88H0.466667V9.86667H22.5333V47.2667L39.1333 9.86667H61.3333L41.4667 46.5333C42.7556 47.4222 44.4667 49.8444 46.6 53.8C48.7333 57.7556 50.7333 61.9111 52.6 66.2667C54.4667 70.6222 56.4 75 58.4 79.4C60.4 83.7556 61.8667 86.6222 62.8 88H38.2667ZM67.0203 88V44.8667L63.0203 42.4V35.2667L77.3536 31.3333H88.487V88H67.0203ZM76.687 25.2L65.7536 14.2V11.8667L76.687 0.933332H79.2203L90.6203 11.8667V14.2L79.2203 25.2H76.687ZM113.284 89.4C107.284 89.4 103.084 87.6 100.684 84C98.3288 80.4 97.151 74.3111 97.151 65.7333V43.0667H92.551V33.8L100.418 31.3333L107.218 15.8H118.951V31.3333H129.884V43.0667H118.751V67.8667C118.751 71.4222 119.262 73.7778 120.284 74.9333C121.307 76.0889 122.884 76.6667 125.018 76.6667C125.951 76.6667 126.795 76.5556 127.551 76.3333C128.307 76.1111 128.929 75.8 129.418 75.4V84.4667C128.751 85.1333 127.884 85.8 126.818 86.4667C125.751 87.0889 123.973 87.7333 121.484 88.4C119.04 89.0667 116.307 89.4 113.284 89.4ZM164.57 82.0667L163.904 82.8C163.459 83.3333 162.77 83.9556 161.837 84.6667C160.948 85.3778 159.904 86.0889 158.704 86.8C157.548 87.5111 156.126 88.1111 154.437 88.6C152.748 89.1333 151.015 89.4 149.237 89.4C137.237 89.4 131.237 83.4667 131.237 71.6C131.237 69.2889 131.659 67.1778 132.504 65.2667C133.348 63.3111 134.437 61.6667 135.77 60.3333C137.104 59 138.704 57.8222 140.57 56.8C142.437 55.7333 144.304 54.9111 146.17 54.3333C148.081 53.7111 150.081 53.2 152.17 52.8C154.259 52.4 156.126 52.1333 157.77 52C159.415 51.8667 160.993 51.8 162.504 51.8V50.6C162.504 47.8889 161.77 45.9778 160.304 44.8667C158.881 43.7556 156.57 43.2 153.37 43.2C150.615 43.2 147.748 43.5333 144.77 44.2C141.793 44.8222 139.459 45.5778 137.77 46.4667L133.504 37.4C136.526 35.4444 140.459 33.7333 145.304 32.2667C150.148 30.7556 155.081 30 160.104 30C164.548 30 168.215 30.4444 171.104 31.3333C173.993 32.1778 176.326 33.6444 178.104 35.7333C179.926 37.7778 181.215 40.4 181.97 43.6C182.726 46.7556 183.104 50.7778 183.104 55.6667V82.8L184.97 88H166.704L164.57 82.0667ZM159.304 77.6667C159.881 77.6667 160.415 77.5556 160.904 77.3333C161.437 77.0667 161.837 76.8222 162.104 76.6C162.37 76.3333 162.504 76.2 162.504 76.2V60.2C159.793 60.2 157.637 60.9556 156.037 62.4667C154.437 63.9333 153.637 66.2222 153.637 69.3333C153.637 74.8889 155.526 77.6667 159.304 77.6667ZM214.163 89.4C210.741 89.4 207.541 89.0889 204.563 88.4667C201.63 87.8889 199.163 87.1111 197.163 86.1333C195.163 85.1556 193.519 84.2222 192.23 83.3333C190.985 82.4444 189.941 81.5556 189.096 80.6667L190.763 64.4667C192.585 66.9111 195.03 69.0444 198.096 70.8667C201.163 72.6444 204.474 73.5333 208.03 73.5333C211.585 73.5333 214.141 73.1556 215.696 72.4C217.296 71.6444 218.096 70.2667 218.096 68.2667C218.096 66.1333 217.185 64.3111 215.363 62.8C213.585 61.2889 210.496 59.4667 206.096 57.3333C204.496 56.5333 203.141 55.8222 202.03 55.2C200.919 54.5333 199.43 53.4667 197.563 52C195.741 50.4889 194.252 48.9333 193.096 47.3333C191.941 45.6889 190.919 43.6 190.03 41.0667C189.141 38.4889 188.696 35.7333 188.696 32.8C188.696 16.9333 197.652 9 215.563 9C218.407 9 221.074 9.31111 223.563 9.93334C226.096 10.5111 228.074 11.1556 229.496 11.8667C230.919 12.5778 232.207 13.4222 233.363 14.4C234.563 15.3333 235.319 16 235.63 16.4C235.941 16.7556 236.163 17.0444 236.296 17.2667L232.963 30.1333C231.23 28.0889 229.052 26.5778 226.43 25.6C223.852 24.5778 221.385 24.0667 219.03 24.0667C213.341 24.0667 210.496 25.8444 210.496 29.4C210.496 30.3333 210.674 31.1778 211.03 31.9333C211.385 32.6889 211.963 33.3778 212.763 34C213.563 34.6222 214.296 35.1556 214.963 35.6C215.674 36.0444 216.63 36.6 217.83 37.2667C219.074 37.8889 220.007 38.4 220.63 38.8C227.119 41.5556 231.874 44.8222 234.896 48.6C237.963 52.3778 239.496 56.9778 239.496 62.4C239.496 71.2 237.319 77.9111 232.963 82.5333C228.652 87.1111 222.385 89.4 214.163 89.4ZM267.96 88H246.36V12.6L242.36 10.2V4L263.76 0.666667H268.094V39.9333L268.894 38.9333C269.427 38.2222 270.205 37.3778 271.227 36.4C272.294 35.4222 273.472 34.4667 274.76 33.5333C276.049 32.5556 277.583 31.7333 279.36 31.0667C281.183 30.3556 282.96 30 284.694 30C290.783 30 295.072 31.6667 297.56 35C300.094 38.3333 301.36 43.9111 301.36 51.7333C301.36 52 301.36 52.4 301.36 52.9333C301.316 53.4667 301.294 53.8889 301.294 54.2V88H279.294V52.2667C279.427 48.0889 277.649 46 273.96 46C273.605 46 273.249 46.0222 272.894 46.0667C272.583 46.1111 272.249 46.2222 271.894 46.4C271.538 46.5778 271.249 46.7111 271.027 46.8C270.849 46.8889 270.56 47.0667 270.16 47.3333C269.805 47.6 269.56 47.7778 269.427 47.8667C269.338 47.9556 269.072 48.1778 268.627 48.5333C268.227 48.8889 268.005 49.0889 267.96 49.1333V88ZM336.398 81.4C338.354 81.4 339.843 80.6 340.865 79C341.932 77.3556 342.465 75.1111 342.465 72.2667V51.2C342.465 42.5333 340.421 38.2 336.332 38.2C334.421 38.2 332.932 38.9778 331.865 40.5333C330.798 42.0889 330.265 44.2889 330.265 47.1333V68.8C330.265 77.2 332.31 81.4 336.398 81.4ZM335.865 89.4C325.687 89.4 318.243 87.0889 313.532 82.4667C308.821 77.8444 306.465 70.4667 306.465 60.3333C306.465 50.2889 308.843 42.7333 313.598 37.6667C318.354 32.5556 326.087 30 336.798 30C347.243 30 354.776 32.4444 359.398 37.3333C364.065 42.1778 366.398 49.5333 366.398 59.4C366.398 69.6222 363.932 77.1778 358.998 82.0667C354.11 86.9556 346.398 89.4 335.865 89.4ZM407.794 88C405.216 88 402.861 87.7333 400.728 87.2C398.594 86.6667 396.728 86 395.128 85.2V108.133H373.661V44.8667L369.661 42.4V35.2667L383.994 31.3333H395.128V35.8C396.728 34.1556 398.661 32.7778 400.928 31.6667C403.194 30.5556 405.839 30 408.861 30C416.194 30 421.572 32.5111 424.994 37.5333C428.461 42.5556 430.194 49.5111 430.194 58.4C430.194 62.5778 429.728 66.4444 428.794 70C427.861 73.5111 426.483 76.6222 424.661 79.3333C422.839 82.0444 420.483 84.1778 417.594 85.7333C414.75 87.2444 411.483 88 407.794 88ZM397.994 78.7333C403.95 78.7333 406.928 74.1778 406.928 65.0667V53.7333C406.928 49.7333 406.239 46.7556 404.861 44.8C403.528 42.8444 401.794 41.8667 399.661 41.8667C398.194 41.8667 396.683 42.3111 395.128 43.2V78.4C395.661 78.5333 396.15 78.6222 396.594 78.6667C397.083 78.7111 397.55 78.7333 397.994 78.7333Z" fill="black"/>
<path d="M38.2667 88L37.4858 88.6247L37.786 89H38.2667V88ZM34.8 80.2L33.8647 80.5541L33.869 80.5651L34.8 80.2ZM28.6667 64.7333L27.7381 65.1047L27.7417 65.1134L28.6667 64.7333ZM22.5333 51.6L23.392 51.0874L21.5333 47.9742V51.6H22.5333ZM22.5333 88V89H23.5333V88H22.5333ZM0.466667 88H-0.533333V89H0.466667V88ZM0.466667 9.86667V8.86667H-0.533333V9.86667H0.466667ZM22.5333 9.86667H23.5333V8.86667H22.5333V9.86667ZM22.5333 47.2667H21.5333L23.4473 47.6724L22.5333 47.2667ZM39.1333 9.86667V8.86667H38.4831L38.2193 9.46098L39.1333 9.86667ZM61.3333 9.86667L62.2126 10.3431L63.0125 8.86667H61.3333V9.86667ZM41.4667 46.5333L40.5874 46.0569L40.1596 46.8466L40.8989 47.3565L41.4667 46.5333ZM46.6 53.8L45.7198 54.2747L45.7198 54.2747L46.6 53.8ZM52.6 66.2667L53.5191 65.8727L53.5191 65.8727L52.6 66.2667ZM58.4 79.4L57.4896 79.8138L57.4912 79.8173L58.4 79.4ZM62.8 88V89H64.6853L63.6279 87.4392L62.8 88ZM39.0475 87.3753C38.9802 87.2911 38.8455 87.079 38.6383 86.6782C38.4397 86.2941 38.1985 85.7845 37.9138 85.1439C37.3448 83.8636 36.6177 82.096 35.731 79.8349L33.869 80.5651C34.7601 82.8374 35.4996 84.6364 36.0862 85.9561C36.3793 86.6155 36.6381 87.1643 36.8617 87.5968C37.0767 88.0126 37.2865 88.3756 37.4858 88.6247L39.0475 87.3753ZM35.7352 79.8459C33.9979 75.2575 31.9498 70.0931 29.5916 64.3533L27.7417 65.1134C30.0946 70.8402 32.1355 75.9869 33.8648 80.5541L35.7352 79.8459ZM29.5951 64.3619C27.2772 58.5672 25.2099 54.1325 23.392 51.0874L21.6747 52.1126C23.4123 55.0231 25.4339 59.3439 27.7382 65.1047L29.5951 64.3619ZM21.5333 51.6V88H23.5333V51.6H21.5333ZM22.5333 87H0.466667V89H22.5333V87ZM1.46667 88V9.86667H-0.533333V88H1.46667ZM0.466667 10.8667H22.5333V8.86667H0.466667V10.8667ZM21.5333 9.86667V47.2667H23.5333V9.86667H21.5333ZM23.4473 47.6724L40.0473 10.2724L38.2193 9.46098L21.6193 46.861L23.4473 47.6724ZM39.1333 10.8667H61.3333V8.86667H39.1333V10.8667ZM60.4541 9.39028L40.5874 46.0569L42.3459 47.0097L62.2126 10.3431L60.4541 9.39028ZM40.8989 47.3565C41.3948 47.6985 42.0627 48.4086 42.8999 49.5936C43.7238 50.7599 44.6636 52.3162 45.7198 54.2747L47.4802 53.3253C46.4031 51.3282 45.4207 49.6957 44.5334 48.4397C43.6595 47.2025 42.8274 46.257 42.0344 45.7101L40.8989 47.3565ZM45.7198 54.2747C47.8382 58.2025 49.8253 62.331 51.6809 66.6606L53.5191 65.8727C51.6413 61.4912 49.6284 57.3086 47.4802 53.3253L45.7198 54.2747ZM51.6809 66.6606C53.5504 71.0229 55.4867 75.4073 57.4896 79.8138L59.3104 78.9862C57.3133 74.5927 55.3829 70.2215 53.5191 65.8727L51.6809 66.6606ZM57.4912 79.8173C59.4864 84.1624 60.9851 87.1039 61.9721 88.5608L63.6279 87.4392C62.7482 86.1405 61.3136 83.3487 59.3088 78.9827L57.4912 79.8173ZM62.8 87H38.2667V89H62.8V87ZM67.0203 88H66.0203V89H67.0203V88ZM67.0203 44.8667H68.0203V44.3085L67.5452 44.0155L67.0203 44.8667ZM63.0203 42.4H62.0203V42.9582L62.4954 43.2512L63.0203 42.4ZM63.0203 35.2667L62.7557 34.3023L62.0203 34.5041V35.2667H63.0203ZM77.3536 31.3333V30.3333H77.2189L77.089 30.369L77.3536 31.3333ZM88.487 31.3333H89.487V30.3333H88.487V31.3333ZM88.487 88V89H89.487V88H88.487ZM76.687 25.2L75.9777 25.905L76.271 26.2H76.687V25.2ZM65.7536 14.2H64.7536V14.6124L65.0444 14.905L65.7536 14.2ZM65.7536 11.8667L65.0465 11.1596L64.7536 11.4525V11.8667H65.7536ZM76.687 0.933332V-0.0666683H76.2728L75.9799 0.226225L76.687 0.933332ZM79.2203 0.933332L79.9125 0.211607L79.6223 -0.0666683H79.2203V0.933332ZM90.6203 11.8667H91.6203V11.4402L91.3125 11.1449L90.6203 11.8667ZM90.6203 14.2L91.3147 14.9196L91.6203 14.6247V14.2H90.6203ZM79.2203 25.2V26.2H79.6241L79.9147 25.9196L79.2203 25.2ZM68.0203 88V44.8667H66.0203V88H68.0203ZM67.5452 44.0155L63.5452 41.5488L62.4954 43.2512L66.4954 45.7178L67.5452 44.0155ZM64.0203 42.4V35.2667H62.0203V42.4H64.0203ZM63.2849 36.231L77.6183 32.2977L77.089 30.369L62.7557 34.3023L63.2849 36.231ZM77.3536 32.3333H88.487V30.3333H77.3536V32.3333ZM87.487 31.3333V88H89.487V31.3333H87.487ZM88.487 87H67.0203V89H88.487V87ZM77.3962 24.495L66.4629 13.495L65.0444 14.905L75.9777 25.905L77.3962 24.495ZM66.7536 14.2V11.8667H64.7536V14.2H66.7536ZM66.4608 12.5738L77.3941 1.64044L75.9799 0.226225L65.0465 11.1596L66.4608 12.5738ZM76.687 1.93333H79.2203V-0.0666683H76.687V1.93333ZM78.5281 1.65506L89.9281 12.5884L91.3125 11.1449L79.9125 0.211607L78.5281 1.65506ZM89.6203 11.8667V14.2H91.6203V11.8667H89.6203ZM89.9259 13.4804L78.5259 24.4804L79.9147 25.9196L91.3147 14.9196L89.9259 13.4804ZM79.2203 24.2H76.687V26.2H79.2203V24.2ZM100.684 84L99.8476 84.5475L99.8523 84.5547L100.684 84ZM97.151 43.0667H98.151V42.0667H97.151V43.0667ZM92.551 43.0667H91.551V44.0667H92.551V43.0667ZM92.551 33.8L92.2518 32.8458L91.551 33.0656V33.8H92.551ZM100.418 31.3333L100.717 32.2875L101.151 32.1513L101.334 31.7344L100.418 31.3333ZM107.218 15.8V14.8H106.564L106.302 15.399L107.218 15.8ZM118.951 15.8H119.951V14.8H118.951V15.8ZM118.951 31.3333H117.951V32.3333H118.951V31.3333ZM129.884 31.3333H130.884V30.3333H129.884V31.3333ZM129.884 43.0667V44.0667H130.884V43.0667H129.884ZM118.751 43.0667V42.0667H117.751V43.0667H118.751ZM120.284 74.9333L119.535 75.5959L119.535 75.5959L120.284 74.9333ZM127.551 76.3333L127.833 77.2927L127.833 77.2927L127.551 76.3333ZM129.418 75.4H130.418V73.2898L128.784 74.626L129.418 75.4ZM129.418 84.4667L130.125 85.1738L130.418 84.8809V84.4667H129.418ZM126.818 86.4667L127.322 87.3304L127.335 87.3228L127.348 87.3147L126.818 86.4667ZM121.484 88.4L121.226 87.434L121.221 87.4352L121.484 88.4ZM113.284 88.4C107.478 88.4 103.664 86.6672 101.516 83.4453L99.8523 84.5547C102.504 88.5328 107.091 90.4 113.284 90.4V88.4ZM101.521 83.4525C99.3347 80.1109 98.151 74.2763 98.151 65.7333H96.151C96.151 74.3459 97.3229 80.6891 99.8476 84.5475L101.521 83.4525ZM98.151 65.7333V43.0667H96.151V65.7333H98.151ZM97.151 42.0667H92.551V44.0667H97.151V42.0667ZM93.551 43.0667V33.8H91.551V43.0667H93.551ZM92.8502 34.7542L100.717 32.2875L100.119 30.3791L92.2518 32.8458L92.8502 34.7542ZM101.334 31.7344L108.134 16.201L106.302 15.399L99.5016 30.9323L101.334 31.7344ZM107.218 16.8H118.951V14.8H107.218V16.8ZM117.951 15.8V31.3333H119.951V15.8H117.951ZM118.951 32.3333H129.884V30.3333H118.951V32.3333ZM128.884 31.3333V43.0667H130.884V31.3333H128.884ZM129.884 42.0667H118.751V44.0667H129.884V42.0667ZM117.751 43.0667V67.8667H119.751V43.0667H117.751ZM117.751 67.8667C117.751 69.6855 117.881 71.2402 118.157 72.512C118.43 73.7716 118.864 74.8374 119.535 75.5959L121.033 74.2708C120.682 73.8737 120.349 73.1839 120.112 72.088C119.876 71.0042 119.751 69.6034 119.751 67.8667H117.751ZM119.535 75.5959C120.812 77.0387 122.712 77.6667 125.018 77.6667V75.6667C123.057 75.6667 121.801 75.139 121.033 74.2708L119.535 75.5959ZM125.018 77.6667C126.029 77.6667 126.971 77.5463 127.833 77.2927L127.269 75.374C126.62 75.5648 125.873 75.6667 125.018 75.6667V77.6667ZM127.833 77.2927C128.686 77.0418 129.436 76.6767 130.051 76.174L128.784 74.626C128.421 74.9233 127.927 75.1805 127.269 75.374L127.833 77.2927ZM128.418 75.4V84.4667H130.418V75.4H128.418ZM128.711 83.7596C128.112 84.3584 127.31 84.9797 126.288 85.6187L127.348 87.3147C128.459 86.6203 129.39 85.9083 130.125 85.1738L128.711 83.7596ZM126.314 85.6029C125.369 86.154 123.701 86.7711 121.226 87.4341L121.743 89.3659C124.246 88.6956 126.133 88.0238 127.322 87.3304L126.314 85.6029ZM121.221 87.4352C118.877 88.0745 116.234 88.4 113.284 88.4V90.4C116.379 90.4 119.203 90.0588 121.747 89.3648L121.221 87.4352ZM164.57 82.0667L165.511 81.7283L164.949 80.1637L163.83 81.394L164.57 82.0667ZM163.904 82.8L163.164 82.1273L163.149 82.1433L163.135 82.1598L163.904 82.8ZM161.837 84.6667L161.231 83.8712L161.222 83.8784L161.212 83.8858L161.837 84.6667ZM158.704 86.8L158.194 85.9397L158.187 85.944L158.18 85.9483L158.704 86.8ZM154.437 88.6L154.159 87.6394L154.147 87.6428L154.136 87.6464L154.437 88.6ZM132.504 65.2667L133.418 65.6708L133.422 65.6631L132.504 65.2667ZM135.77 60.3333L135.063 59.6262L135.063 59.6262L135.77 60.3333ZM140.57 56.8L141.051 57.6771L141.059 57.6727L141.066 57.6682L140.57 56.8ZM146.17 54.3333L146.466 55.2886L146.473 55.2865L146.48 55.2842L146.17 54.3333ZM152.17 52.8L151.982 51.8178L151.982 51.8178L152.17 52.8ZM157.77 52L157.851 52.9967L157.851 52.9967L157.77 52ZM162.504 51.8V52.8H163.504V51.8H162.504ZM160.304 44.8667L159.688 45.6547L159.694 45.6593L159.7 45.6638L160.304 44.8667ZM144.77 44.2L144.975 45.1789L144.982 45.1774L144.989 45.1758L144.77 44.2ZM137.77 46.4667L136.865 46.8925L137.311 47.8386L138.236 47.3516L137.77 46.4667ZM133.504 37.4L132.96 36.5604L132.227 37.0351L132.599 37.8258L133.504 37.4ZM145.304 32.2667L145.593 33.2238L145.601 33.2213L145.304 32.2667ZM171.104 31.3333L170.81 32.2892L170.823 32.2932L171.104 31.3333ZM178.104 35.7333L177.342 36.3815L177.35 36.3902L177.357 36.3987L178.104 35.7333ZM181.97 43.6L180.997 43.8298L180.998 43.8329L181.97 43.6ZM183.104 82.8H182.104V82.974L182.162 83.1379L183.104 82.8ZM184.97 88V89H186.392L185.912 87.6621L184.97 88ZM166.704 88L165.763 88.3383L166.001 89H166.704V88ZM160.904 77.3333L161.317 78.2437L161.334 78.236L161.351 78.2278L160.904 77.3333ZM162.104 76.6L162.744 77.3682L162.779 77.3392L162.811 77.3071L162.104 76.6ZM162.504 76.2L163.211 76.9071L163.504 76.6142V76.2H162.504ZM162.504 60.2H163.504V59.2H162.504V60.2ZM156.037 62.4667L156.713 63.2038L156.718 63.1988L156.724 63.1937L156.037 62.4667ZM163.83 81.394L163.164 82.1273L164.644 83.4727L165.31 82.7393L163.83 81.394ZM163.135 82.1598C162.761 82.6094 162.139 83.179 161.231 83.8712L162.443 85.4621C163.401 84.7321 164.158 84.0572 164.672 83.4402L163.135 82.1598ZM161.212 83.8858C160.367 84.5622 159.362 85.2473 158.194 85.9397L159.213 87.6603C160.445 86.9305 161.529 86.1934 162.462 85.4475L161.212 83.8858ZM158.18 85.9483C157.119 86.6007 155.785 87.1686 154.159 87.6394L154.715 89.5606C156.466 89.0536 157.977 88.4215 159.228 87.6517L158.18 85.9483ZM154.136 87.6464C152.545 88.1489 150.913 88.4 149.237 88.4V90.4C151.117 90.4 152.951 90.1178 154.738 89.5536L154.136 87.6464ZM149.237 88.4C143.388 88.4 139.186 86.9544 136.44 84.239C133.696 81.5255 132.237 77.3763 132.237 71.6H130.237C130.237 77.6903 131.778 82.4411 135.034 85.661C138.288 88.8789 143.086 90.4 149.237 90.4V88.4ZM132.237 71.6C132.237 69.4132 132.636 67.4417 133.418 65.6708L131.589 64.8625C130.683 66.9139 130.237 69.1646 130.237 71.6H132.237ZM133.422 65.6631C134.223 63.8086 135.244 62.2736 136.477 61.0404L135.063 59.6262C133.63 61.0597 132.474 62.8137 131.586 64.8702L133.422 65.6631ZM136.477 61.0404C137.736 59.7822 139.257 58.6595 141.051 57.6771L140.09 55.9229C138.151 56.985 136.472 58.2178 135.063 59.6262L136.477 61.0404ZM141.066 57.6682C142.876 56.6343 144.676 55.8428 146.466 55.2886L145.875 53.378C143.932 53.9795 141.998 54.8324 140.074 55.9318L141.066 57.6682ZM146.48 55.2842C148.349 54.6757 150.308 54.1747 152.358 53.7822L151.982 51.8178C149.855 52.2253 147.814 52.7466 145.861 53.3825L146.48 55.2842ZM152.358 53.7822C154.421 53.3871 156.251 53.1265 157.851 52.9967L157.689 51.0033C156.001 51.1402 154.097 51.4129 151.982 51.8178L152.358 53.7822ZM157.851 52.9967C159.471 52.8654 161.022 52.8 162.504 52.8V50.8C160.963 50.8 159.358 50.868 157.689 51.0033L157.851 52.9967ZM163.504 51.8V50.6H161.504V51.8H163.504ZM163.504 50.6C163.504 47.7303 162.725 45.4467 160.908 44.0696L159.7 45.6638C160.815 46.5088 161.504 48.0475 161.504 50.6H163.504ZM160.919 44.0786C159.23 42.7588 156.64 42.2 153.37 42.2V44.2C156.501 44.2 158.533 44.7524 159.688 45.6547L160.919 44.0786ZM153.37 42.2C150.534 42.2 147.594 42.5431 144.552 43.2242L144.989 45.1758C147.902 44.5235 150.696 44.2 153.37 44.2V42.2ZM144.566 43.2211C141.544 43.8525 139.11 44.6317 137.305 45.5817L138.236 47.3516C139.809 46.5238 142.041 45.7919 144.975 45.1789L144.566 43.2211ZM138.675 46.0409L134.408 36.9742L132.599 37.8258L136.865 46.8925L138.675 46.0409ZM134.047 38.2396C136.966 36.3508 140.805 34.6734 145.593 33.2238L145.014 31.3096C140.113 32.7933 136.086 34.5381 132.96 36.5604L134.047 38.2396ZM145.601 33.2213C150.35 31.7399 155.183 31 160.104 31V29C154.979 29 149.946 29.7712 145.006 31.312L145.601 33.2213ZM160.104 31C164.491 31 168.049 31.4398 170.81 32.2891L171.398 30.3776C168.38 29.4491 164.606 29 160.104 29V31ZM170.823 32.2932C173.544 33.0884 175.703 34.4555 177.342 36.3815L178.865 35.0852C176.949 32.8334 174.441 31.2672 171.384 30.3735L170.823 32.2932ZM177.357 36.3987C179.049 38.2964 180.272 40.7593 180.997 43.8298L182.944 43.3702C182.157 40.0407 180.803 37.2591 178.85 35.068L177.357 36.3987ZM180.998 43.8329C181.728 46.8841 182.104 50.8209 182.104 55.6667H184.104C184.104 50.7346 183.723 46.627 182.943 43.3671L180.998 43.8329ZM182.104 55.6667V82.8H184.104V55.6667H182.104ZM182.162 83.1379L184.029 88.3379L185.912 87.6621L184.045 82.4621L182.162 83.1379ZM184.97 87H166.704V89H184.97V87ZM167.645 87.6617L165.511 81.7283L163.629 82.405L165.763 88.3383L167.645 87.6617ZM159.304 78.6667C160.013 78.6667 160.689 78.5294 161.317 78.2437L160.49 76.423C160.141 76.5817 159.75 76.6667 159.304 76.6667V78.6667ZM161.351 78.2278C161.912 77.9474 162.39 77.6627 162.744 77.3682L161.463 75.8318C161.283 75.9818 160.962 76.1859 160.456 76.4389L161.351 78.2278ZM162.811 77.3071C162.844 77.2738 162.79 77.328 162.823 77.2947C162.847 77.2704 162.811 77.3067 162.835 77.2825C162.847 77.2704 162.829 77.2886 162.841 77.2765C162.845 77.2725 162.843 77.2745 162.847 77.2705C162.848 77.27 162.848 77.2695 162.849 77.269C162.849 77.2685 162.85 77.268 162.85 77.2675C162.866 77.2518 162.838 77.2803 162.853 77.2646C162.857 77.2606 162.855 77.2626 162.859 77.2587C162.89 77.2279 162.84 77.2778 162.871 77.247C162.871 77.2466 162.872 77.2461 162.872 77.2456C162.873 77.2451 162.873 77.2447 162.874 77.2442C162.878 77.2404 162.873 77.2451 162.877 77.2413C162.888 77.23 162.871 77.247 162.882 77.2356C162.884 77.2337 162.883 77.2347 162.885 77.2328C162.896 77.2216 162.877 77.2412 162.888 77.23C162.888 77.2295 162.889 77.229 162.889 77.2286C162.89 77.2281 162.89 77.2276 162.891 77.2272C162.891 77.2267 162.892 77.2263 162.892 77.2258C162.893 77.2253 162.893 77.2249 162.893 77.2244C162.906 77.2115 162.883 77.2345 162.896 77.2216C162.897 77.2212 162.897 77.2207 162.898 77.2202C162.898 77.2198 162.899 77.2193 162.899 77.2189C162.914 77.2041 162.887 77.2308 162.902 77.2161C162.902 77.2156 162.903 77.2152 162.903 77.2147C162.904 77.2143 162.904 77.2138 162.905 77.2134C162.923 77.1951 162.892 77.2261 162.91 77.2079C162.917 77.2007 162.908 77.2097 162.915 77.2025C162.944 77.1739 162.897 77.2205 162.926 77.1919C162.933 77.1849 162.924 77.1936 162.931 77.1866C162.932 77.1862 162.932 77.1858 162.933 77.1853C162.933 77.1849 162.933 77.1845 162.934 77.184C162.934 77.1836 162.935 77.1832 162.935 77.1827C162.936 77.1823 162.936 77.1819 162.936 77.1814C162.943 77.1745 162.935 77.1832 162.942 77.1763C162.952 77.1661 162.937 77.1813 162.947 77.1712C162.967 77.1509 162.937 77.1814 162.957 77.1611C162.963 77.1545 162.96 77.1578 162.967 77.1512C163.019 77.0992 162.934 77.1839 162.986 77.1321C163.069 77.0487 163.044 77.0738 163.111 77.0071C163.127 76.9904 163.106 77.0114 163.123 76.995C163.145 76.9729 163.112 77.0055 163.134 76.9837C163.152 76.9654 163.121 76.9965 163.14 76.9783C163.15 76.9681 163.135 76.9833 163.145 76.9731C163.165 76.9528 163.134 76.9834 163.155 76.9634C163.176 76.9415 163.151 76.967 163.172 76.9462C163.172 76.946 163.172 76.9458 163.172 76.9457C163.172 76.9455 163.173 76.9454 163.173 76.9452C163.176 76.942 163.17 76.9475 163.174 76.9442C163.175 76.943 163.174 76.9436 163.175 76.9424C163.185 76.9325 163.169 76.9486 163.179 76.9387C163.184 76.9343 163.182 76.9363 163.186 76.9321C163.186 76.932 163.186 76.9318 163.186 76.9317C163.186 76.9316 163.186 76.9315 163.187 76.9313C163.19 76.9283 163.184 76.9336 163.187 76.9306C163.187 76.9304 163.188 76.9303 163.188 76.9302C163.188 76.9301 163.188 76.9299 163.188 76.9298C163.188 76.9297 163.188 76.9296 163.188 76.9294C163.189 76.9293 163.189 76.9292 163.189 76.9291C163.194 76.9235 163.186 76.9317 163.192 76.9262C163.195 76.9226 163.193 76.9246 163.197 76.9212C163.202 76.916 163.2 76.9175 163.205 76.9134C163.213 76.905 163.199 76.9187 163.207 76.9106C163.209 76.9093 163.208 76.9097 163.209 76.9087C163.21 76.9082 163.209 76.9084 163.21 76.908C163.21 76.9074 163.21 76.908 163.21 76.9075C163.211 76.9072 163.21 76.9076 163.211 76.9073C163.211 76.9073 163.211 76.9073 163.211 76.9073C163.211 76.9073 163.211 76.9073 163.211 76.9073C163.211 76.9072 163.211 76.9072 163.211 76.9072C163.211 76.9072 163.211 76.9072 163.211 76.9072C163.211 76.9071 163.211 76.9073 163.211 76.9072C163.211 76.9072 163.211 76.9072 163.211 76.9071C163.211 76.9071 163.211 76.9071 163.211 76.9071C163.211 76.9071 163.211 76.9071 163.211 76.9071C163.211 76.9071 163.211 76.9071 163.211 76.9071C163.211 76.9071 163.211 76.9071 163.211 76.9071C163.211 76.9071 163.211 76.9071 162.504 76.2C161.797 75.4929 161.797 75.4929 161.797 75.4929C161.797 75.4929 161.797 75.4929 161.797 75.4929C161.797 75.4929 161.797 75.4929 161.797 75.4929C161.797 75.4929 161.797 75.4929 161.797 75.4929C161.797 75.4929 161.797 75.4929 161.797 75.4929C161.796 75.4929 161.796 75.4929 161.796 75.4929C161.796 75.493 161.796 75.493 161.796 75.493C161.796 75.493 161.796 75.493 161.796 75.493C161.796 75.493 161.796 75.493 161.796 75.493C161.796 75.493 161.796 75.493 161.796 75.493C161.796 75.4932 161.796 75.493 161.796 75.4931C161.796 75.4934 161.796 75.493 161.796 75.4933C161.796 75.4933 161.796 75.4933 161.796 75.4933C161.796 75.4934 161.796 75.4934 161.796 75.4934C161.796 75.4935 161.796 75.4933 161.796 75.4935C161.796 75.4935 161.796 75.4936 161.796 75.4936C161.796 75.4938 161.796 75.4936 161.796 75.4938C161.795 75.4942 161.796 75.4939 161.795 75.4945C161.795 75.4945 161.795 75.4945 161.795 75.4946C161.795 75.4946 161.795 75.4946 161.795 75.4947C161.795 75.4949 161.795 75.4946 161.795 75.4949C161.794 75.4952 161.795 75.4948 161.794 75.4951C161.794 75.4951 161.794 75.4952 161.794 75.4952C161.794 75.4953 161.794 75.4953 161.794 75.4953C161.794 75.4954 161.794 75.4954 161.794 75.4955C161.794 75.4955 161.794 75.4955 161.794 75.4956C161.794 75.4956 161.794 75.4957 161.794 75.4957C161.794 75.4958 161.794 75.4958 161.794 75.4958C161.794 75.4959 161.793 75.4959 161.793 75.496C161.793 75.496 161.793 75.4961 161.793 75.4961C161.793 75.4962 161.793 75.4962 161.793 75.4963C161.793 75.4963 161.793 75.4964 161.793 75.4964C161.789 75.5003 161.794 75.495 161.79 75.4991C161.789 75.5005 161.777 75.5123 161.772 75.5179C161.738 75.5512 161.778 75.5116 161.74 75.5491C161.712 75.5773 161.749 75.5403 161.72 75.5695C161.713 75.5767 161.716 75.5732 161.709 75.5808C161.692 75.5972 161.713 75.5762 161.697 75.5929C161.63 75.6596 161.655 75.6345 161.572 75.7179C161.545 75.744 161.56 75.7299 161.532 75.757C161.531 75.7586 161.524 75.7655 161.522 75.7672C161.508 75.781 161.526 75.7638 161.512 75.7777C161.498 75.7919 161.515 75.774 161.501 75.7883C161.501 75.7888 161.5 75.7892 161.5 75.7896C161.499 75.7901 161.499 75.7905 161.498 75.791C161.495 75.7946 161.499 75.7901 161.496 75.7937C161.492 75.7973 161.494 75.7955 161.49 75.7991C161.49 75.7996 161.489 75.8001 161.489 75.8005C161.488 75.801 161.488 75.8014 161.488 75.8019C161.487 75.8023 161.487 75.8028 161.486 75.8033C161.486 75.8037 161.485 75.8042 161.485 75.8046C161.484 75.8051 161.484 75.8056 161.483 75.806C161.483 75.8065 161.482 75.8069 161.482 75.8074C161.48 75.8092 161.481 75.8083 161.479 75.8102C161.479 75.8106 161.478 75.8111 161.478 75.8116C161.477 75.812 161.477 75.8125 161.476 75.813C161.476 75.8134 161.476 75.8139 161.475 75.8144C161.475 75.8148 161.474 75.8153 161.474 75.8158C161.473 75.8162 161.473 75.8167 161.472 75.8172C161.472 75.8176 161.471 75.8181 161.471 75.8186C161.469 75.8205 161.47 75.8195 161.468 75.8214C161.453 75.8365 161.46 75.8291 161.445 75.8445C161.437 75.8523 161.441 75.8483 161.433 75.8563C161.429 75.8602 161.431 75.8583 161.427 75.8623C161.423 75.8663 161.425 75.8642 161.421 75.8683C161.421 75.8688 161.42 75.8693 161.42 75.8698C161.419 75.8703 161.419 75.8708 161.418 75.8713C161.418 75.8718 161.417 75.8723 161.417 75.8728C161.416 75.8733 161.416 75.8739 161.415 75.8744C161.415 75.8749 161.414 75.8754 161.414 75.8759C161.413 75.8764 161.413 75.8769 161.412 75.8774C161.41 75.8795 161.411 75.8784 161.409 75.8805C161.401 75.8887 161.411 75.8784 161.403 75.8867C161.399 75.8908 161.404 75.8856 161.4 75.8898C161.395 75.8939 161.401 75.8887 161.397 75.8929L162.811 77.3071ZM163.504 76.2V60.2H161.504V76.2H163.504ZM162.504 59.2C159.599 59.2 157.177 60.0147 155.35 61.7397L156.724 63.1937C158.097 61.8964 159.986 61.2 162.504 61.2V59.2ZM155.361 61.7295C153.478 63.4556 152.637 66.0658 152.637 69.3333H154.637C154.637 66.3786 155.396 64.411 156.713 63.2038L155.361 61.7295ZM152.637 69.3333C152.637 72.1932 153.117 74.5144 154.227 76.1456C155.383 77.8459 157.132 78.6667 159.304 78.6667V76.6667C157.698 76.6667 156.613 76.0985 155.881 75.021C155.101 73.8745 154.637 72.029 154.637 69.3333H152.637ZM204.563 88.4667L204.768 87.4877L204.756 87.4855L204.563 88.4667ZM197.163 86.1333L197.602 85.2349L197.163 86.1333ZM192.23 83.3333L191.648 84.1471L191.655 84.1519L191.662 84.1565L192.23 83.3333ZM189.096 80.6667L188.102 80.5643L188.055 81.0219L188.371 81.3554L189.096 80.6667ZM190.763 64.4667L191.565 63.869L190.031 61.8114L189.768 64.3643L190.763 64.4667ZM198.096 70.8667L197.585 71.7264L197.595 71.7318L198.096 70.8667ZM215.696 72.4L215.269 71.4957L215.259 71.5005L215.696 72.4ZM215.363 62.8L214.715 63.562L214.725 63.5698L215.363 62.8ZM206.096 57.3333L205.649 58.2278L205.66 58.2331L206.096 57.3333ZM202.03 55.2L201.515 56.0575L201.528 56.0652L201.541 56.0725L202.03 55.2ZM197.563 52L196.925 52.7698L196.935 52.7782L196.945 52.7863L197.563 52ZM193.096 47.3333L192.278 47.9083L192.286 47.9188L193.096 47.3333ZM190.03 41.0667L189.084 41.3927L189.086 41.3978L190.03 41.0667ZM223.563 9.93334L223.32 10.9035L223.331 10.906L223.341 10.9083L223.563 9.93334ZM233.363 14.4L232.717 15.1634L232.733 15.1767L232.749 15.1894L233.363 14.4ZM235.63 16.4L234.84 17.0139L234.858 17.0368L234.877 17.0585L235.63 16.4ZM236.296 17.2667L237.264 17.5175L237.37 17.1116L237.154 16.7522L236.296 17.2667ZM232.963 30.1333L232.2 30.78L233.447 32.251L233.931 30.3841L232.963 30.1333ZM226.43 25.6L226.061 26.5296L226.071 26.5334L226.08 26.537L226.43 25.6ZM211.03 31.9333L211.935 31.5075L211.935 31.5075L211.03 31.9333ZM212.763 34L213.377 33.2106L213.377 33.2106L212.763 34ZM214.963 35.6L214.408 36.4321L214.421 36.4402L214.433 36.448L214.963 35.6ZM217.83 37.2667L217.344 38.1408L217.363 38.1514L217.382 38.1611L217.83 37.2667ZM220.63 38.8L220.089 39.6412L220.161 39.6872L220.239 39.7204L220.63 38.8ZM234.896 48.6L234.115 49.2247L234.12 49.2302L234.896 48.6ZM232.963 82.5333L232.235 81.8475L232.235 81.8477L232.963 82.5333ZM214.163 88.4C210.801 88.4 207.67 88.0944 204.768 87.4878L204.358 89.4455C207.411 90.0834 210.68 90.4 214.163 90.4V88.4ZM204.756 87.4855C201.881 86.9192 199.503 86.1641 197.602 85.2349L196.724 87.0317C198.823 88.0581 201.378 88.8586 204.37 89.4478L204.756 87.4855ZM197.602 85.2349C195.63 84.2707 194.032 83.3618 192.797 82.5101L191.662 84.1565C193.005 85.0827 194.696 86.0404 196.724 87.0317L197.602 85.2349ZM192.811 82.5196C191.606 81.6591 190.613 80.811 189.821 79.9779L188.371 81.3554C189.269 82.3001 190.364 83.2298 191.648 84.1471L192.811 82.5196ZM190.091 80.769L191.758 64.569L189.768 64.3643L188.102 80.5643L190.091 80.769ZM189.961 65.0643C191.874 67.6308 194.425 69.8481 197.586 71.7264L198.607 70.007C195.635 68.2408 193.296 66.1914 191.565 63.869L189.961 65.0643ZM197.595 71.7318C200.814 73.5982 204.299 74.5333 208.03 74.5333V72.5333C204.65 72.5333 201.512 71.6907 198.598 70.0015L197.595 71.7318ZM208.03 74.5333C211.61 74.5333 214.361 74.1604 216.133 73.2995L215.259 71.5005C213.921 72.1507 211.561 72.5333 208.03 72.5333V74.5333ZM216.123 73.3042C217.086 72.8499 217.848 72.1855 218.361 71.3021C218.87 70.4264 219.096 69.3986 219.096 68.2667H217.096C217.096 69.1348 216.923 69.7958 216.632 70.2979C216.344 70.7923 215.907 71.1946 215.269 71.4958L216.123 73.3042ZM219.096 68.2667C219.096 65.8007 218.024 63.7078 216.001 62.0302L214.725 63.5698C216.346 64.9144 217.096 66.466 217.096 68.2667H219.096ZM216.011 62.0381C214.131 60.44 210.945 58.5727 206.533 56.4335L205.66 58.2331C210.048 60.3607 213.04 62.1378 214.715 63.5619L216.011 62.0381ZM206.544 56.4389C204.952 55.6433 203.612 54.9397 202.518 54.3275L201.541 56.0725C202.67 56.7047 204.04 57.4233 205.649 58.2278L206.544 56.4389ZM202.544 54.3425C201.487 53.7082 200.037 52.672 198.181 51.2137L196.945 52.7863C198.823 54.2614 200.35 55.3585 201.515 56.0575L202.544 54.3425ZM198.201 51.2302C196.432 49.7627 195.004 48.2674 193.907 46.7478L192.286 47.9188C193.499 49.5993 195.05 51.2151 196.925 52.7698L198.201 51.2302ZM193.915 46.7584C192.826 45.2094 191.841 43.2093 190.973 40.7356L189.086 41.3978C189.996 43.9907 191.056 46.1684 192.278 47.9083L193.915 46.7584ZM190.975 40.7407C190.125 38.2755 189.696 35.6308 189.696 32.8H187.696C187.696 35.8359 188.157 38.7023 189.084 41.3927L190.975 40.7407ZM189.696 32.8C189.696 25.0543 191.877 19.4186 196.076 15.6985C200.299 11.958 206.734 10 215.563 10V8C206.481 8 199.483 10.0087 194.75 14.2015C189.994 18.4147 187.696 24.679 187.696 32.8H189.696ZM215.563 10C218.334 10 220.919 10.3031 223.32 10.9035L223.806 8.96319C221.229 8.31913 218.48 8 215.563 8V10ZM223.341 10.9083C225.839 11.478 227.729 12.101 229.049 12.7611L229.944 10.9722C228.419 10.2101 226.354 9.54423 223.785 8.95837L223.341 10.9083ZM229.049 12.7611C230.404 13.4384 231.625 14.2396 232.717 15.1634L234.009 13.6366C232.79 12.6049 231.433 11.7172 229.944 10.9722L229.049 12.7611ZM232.749 15.1894C233.966 16.136 234.619 16.7291 234.84 17.0139L236.419 15.7861C236.018 15.2709 235.16 14.5306 233.977 13.6106L232.749 15.1894ZM234.877 17.0585C235.175 17.3994 235.351 17.6355 235.439 17.7812L237.154 16.7522C236.975 16.4534 236.706 16.1117 236.382 15.7415L234.877 17.0585ZM235.328 17.0159L231.995 29.8825L233.931 30.3841L237.264 17.5175L235.328 17.0159ZM233.726 29.4866C231.877 27.3058 229.554 25.6979 226.779 24.663L226.08 26.537C228.55 27.4577 230.583 28.872 232.2 30.78L233.726 29.4866ZM226.798 24.6704C224.124 23.6098 221.532 23.0667 219.03 23.0667V25.0667C221.239 25.0667 223.58 25.5458 226.061 26.5296L226.798 24.6704ZM219.03 23.0667C216.113 23.0667 213.756 23.5165 212.1 24.552C210.365 25.6365 209.496 27.3024 209.496 29.4H211.496C211.496 27.9421 212.05 26.9413 213.16 26.248C214.347 25.5057 216.257 25.0667 219.03 25.0667V23.0667ZM209.496 29.4C209.496 30.4631 209.7 31.4554 210.125 32.3591L211.935 31.5075C211.649 30.9001 211.496 30.2036 211.496 29.4H209.496ZM210.125 32.3591C210.56 33.2843 211.251 34.0909 212.149 34.7894L213.377 33.2106C212.675 32.6647 212.21 32.0934 211.935 31.5075L210.125 32.3591ZM212.149 34.7893C212.964 35.4228 213.717 35.9711 214.408 36.4321L215.518 34.768C214.876 34.34 214.163 33.8216 213.377 33.2106L212.149 34.7893ZM214.433 36.448C215.165 36.9054 216.137 37.4703 217.344 38.1408L218.315 36.3925C217.122 35.7297 216.183 35.1835 215.493 34.752L214.433 36.448ZM217.382 38.1611C218.617 38.7786 219.513 39.2707 220.089 39.6412L221.17 37.9588C220.502 37.5293 219.531 36.9992 218.277 36.3722L217.382 38.1611ZM220.239 39.7204C226.64 42.4388 231.233 45.622 234.115 49.2247L235.677 47.9753C232.515 44.0225 227.597 40.6723 221.021 37.8796L220.239 39.7204ZM234.12 49.2302C237.025 52.8093 238.496 57.1794 238.496 62.4H240.496C240.496 56.7761 238.901 51.9462 235.673 47.9698L234.12 49.2302ZM238.496 62.4C238.496 71.0443 236.358 77.4723 232.235 81.8475L233.691 83.2191C238.279 78.3499 240.496 71.3557 240.496 62.4H238.496ZM232.235 81.8477C228.166 86.1682 222.199 88.4 214.163 88.4V90.4C222.572 90.4 229.138 88.0541 233.691 83.2189L232.235 81.8477ZM267.96 88V89H268.96V88H267.96ZM246.36 88H245.36V89H246.36V88ZM246.36 12.6H247.36V12.0338L246.875 11.7425L246.36 12.6ZM242.36 10.2H241.36V10.7662L241.846 11.0575L242.36 10.2ZM242.36 4L242.207 3.01192L241.36 3.14371V4H242.36ZM263.76 0.666667V-0.333333H263.683L263.607 -0.321419L263.76 0.666667ZM268.094 0.666667H269.094V-0.333333H268.094V0.666667ZM268.094 39.9333H267.094V42.7841L268.875 40.558L268.094 39.9333ZM268.894 38.9333L269.675 39.558L269.684 39.5458L269.694 39.5333L268.894 38.9333ZM271.227 36.4L270.551 35.6628L270.544 35.67L270.536 35.6774L271.227 36.4ZM274.76 33.5333L275.347 34.3433L275.356 34.3368L275.365 34.33L274.76 33.5333ZM279.36 31.0667L279.712 32.0031L279.724 31.9982L279.36 31.0667ZM297.56 35L296.759 35.5983L296.764 35.6051L297.56 35ZM301.36 52.9333L302.357 53.0164L302.36 52.9749V52.9333H301.36ZM301.294 88V89H302.294V88H301.294ZM279.294 88H278.294V89H279.294V88ZM279.294 52.2667L278.294 52.2348L278.294 52.2507V52.2667H279.294ZM272.894 46.0667L272.77 45.0744L272.761 45.0755L272.752 45.0767L272.894 46.0667ZM271.894 46.4L271.447 45.5056L271.447 45.5056L271.894 46.4ZM271.027 46.8L270.656 45.8715L270.617 45.887L270.58 45.9056L271.027 46.8ZM270.16 47.3333L269.606 46.5013L269.583 46.5167L269.56 46.5333L270.16 47.3333ZM269.427 47.8667L268.872 47.0346L268.79 47.0895L268.72 47.1596L269.427 47.8667ZM268.627 48.5333L268.002 47.7525L267.982 47.7687L267.963 47.7859L268.627 48.5333ZM267.96 49.1333L267.253 48.4262L266.96 48.7191V49.1333H267.96ZM267.96 87H246.36V89H267.96V87ZM247.36 88V12.6H245.36V88H247.36ZM246.875 11.7425L242.875 9.34251L241.846 11.0575L245.846 13.4575L246.875 11.7425ZM243.36 10.2V4H241.36V10.2H243.36ZM242.514 4.98809L263.914 1.65475L263.607 -0.321419L242.207 3.01192L242.514 4.98809ZM263.76 1.66667H268.094V-0.333333H263.76V1.66667ZM267.094 0.666667V39.9333H269.094V0.666667H267.094ZM268.875 40.558L269.675 39.558L268.113 38.3086L267.313 39.3086L268.875 40.558ZM269.694 39.5333C270.181 38.8838 270.915 38.0819 271.918 37.1226L270.536 35.6774C269.494 36.6736 268.673 37.5606 268.094 38.3333L269.694 39.5333ZM271.903 37.1372C272.939 36.1877 274.086 35.2563 275.347 34.3433L274.174 32.7234C272.857 33.6771 271.649 34.6567 270.551 35.6628L271.903 37.1372ZM275.365 34.33C276.564 33.4199 278.009 32.6414 279.712 32.003L279.009 30.1303C277.156 30.8253 275.534 31.6912 274.156 32.7366L275.365 34.33ZM279.724 31.9982C281.445 31.3266 283.1 31 284.694 31V29C282.821 29 280.92 29.3845 278.997 30.1351L279.724 31.9982ZM284.694 31C290.62 31 294.535 32.6195 296.759 35.5983L298.362 34.4017C295.608 30.7138 290.945 29 284.694 29V31ZM296.764 35.6051C299.092 38.6679 300.36 43.9654 300.36 51.7333H302.36C302.36 43.8569 301.095 37.9987 298.357 34.3949L296.764 35.6051ZM300.36 51.7333C300.36 51.7339 300.36 51.7344 300.36 51.7349C300.36 51.7354 300.36 51.7359 300.36 51.7365C300.36 51.737 300.36 51.7375 300.36 51.738C300.36 51.7386 300.36 51.7391 300.36 51.7396C300.36 51.7401 300.36 51.7407 300.36 51.7412C300.36 51.7417 300.36 51.7422 300.36 51.7428C300.36 51.7433 300.36 51.7438 300.36 51.7443C300.36 51.7449 300.36 51.7454 300.36 51.7459C300.36 51.7465 300.36 51.747 300.36 51.7475C300.36 51.748 300.36 51.7486 300.36 51.7491C300.36 51.7496 300.36 51.7502 300.36 51.7507C300.36 51.7512 300.36 51.7518 300.36 51.7523C300.36 51.7528 300.36 51.7534 300.36 51.7539C300.36 51.7544 300.36 51.755 300.36 51.7555C300.36 51.756 300.36 51.7566 300.36 51.7571C300.36 51.7577 300.36 51.7582 300.36 51.7587C300.36 51.7593 300.36 51.7598 300.36 51.7603C300.36 51.7609 300.36 51.7614 300.36 51.762C300.36 51.7625 300.36 51.763 300.36 51.7636C300.36 51.7641 300.36 51.7647 300.36 51.7652C300.36 51.7657 300.36 51.7663 300.36 51.7668C300.36 51.7674 300.36 51.7679 300.36 51.7684C300.36 51.769 300.36 51.7695 300.36 51.7701C300.36 51.7706 300.36 51.7712 300.36 51.7717C300.36 51.7723 300.36 51.7728 300.36 51.7733C300.36 51.7739 300.36 51.7744 300.36 51.775C300.36 51.7755 300.36 51.7761 300.36 51.7766C300.36 51.7772 300.36 51.7777 300.36 51.7783C300.36 51.7788 300.36 51.7794 300.36 51.7799C300.36 51.7805 300.36 51.781 300.36 51.7816C300.36 51.7821 300.36 51.7827 300.36 51.7832C300.36 51.7838 300.36 51.7843 300.36 51.7849C300.36 51.7854 300.36 51.786 300.36 51.7866C300.36 51.7871 300.36 51.7877 300.36 51.7882C300.36 51.7888 300.36 51.7893 300.36 51.7899C300.36 51.7904 300.36 51.791 300.36 51.7916C300.36 51.7921 300.36 51.7927 300.36 51.7932C300.36 51.7938 300.36 51.7944 300.36 51.7949C300.36 51.7955 300.36 51.796 300.36 51.7966C300.36 51.7972 300.36 51.7977 300.36 51.7983C300.36 51.7988 300.36 51.7994 300.36 51.8C300.36 51.8005 300.36 51.8011 300.36 51.8017C300.36 51.8022 300.36 51.8028 300.36 51.8033C300.36 51.8039 300.36 51.8045 300.36 51.805C300.36 51.8056 300.36 51.8062 300.36 51.8067C300.36 51.8073 300.36 51.8079 300.36 51.8084C300.36 51.809 300.36 51.8096 300.36 51.8101C300.36 51.8107 300.36 51.8113 300.36 51.8118C300.36 51.8124 300.36 51.813 300.36 51.8136C300.36 51.8141 300.36 51.8147 300.36 51.8153C300.36 51.8158 300.36 51.8164 300.36 51.817C300.36 51.8176 300.36 51.8181 300.36 51.8187C300.36 51.8193 300.36 51.8199 300.36 51.8204C300.36 51.821 300.36 51.8216 300.36 51.8222C300.36 51.8227 300.36 51.8233 300.36 51.8239C300.36 51.8245 300.36 51.825 300.36 51.8256C300.36 51.8262 300.36 51.8268 300.36 51.8274C300.36 51.8279 300.36 51.8285 300.36 51.8291C300.36 51.8297 300.36 51.8303 300.36 51.8308C300.36 51.8314 300.36 51.832 300.36 51.8326C300.36 51.8332 300.36 51.8337 300.36 51.8343C300.36 51.8349 300.36 51.8355 300.36 51.8361C300.36 51.8367 300.36 51.8372 300.36 51.8378C300.36 51.8384 300.36 51.839 300.36 51.8396C300.36 51.8402 300.36 51.8408 300.36 51.8413C300.36 51.8419 300.36 51.8425 300.36 51.8431C300.36 51.8437 300.36 51.8443 300.36 51.8449C300.36 51.8455 300.36 51.846 300.36 51.8466C300.36 51.8472 300.36 51.8478 300.36 51.8484C300.36 51.849 300.36 51.8496 300.36 51.8502C300.36 51.8508 300.36 51.8514 300.36 51.852C300.36 51.8526 300.36 51.8531 300.36 51.8537C300.36 51.8543 300.36 51.8549 300.36 51.8555C300.36 51.8561 300.36 51.8567 300.36 51.8573C300.36 51.8579 300.36 51.8585 300.36 51.8591C300.36 51.8597 300.36 51.8603 300.36 51.8609C300.36 51.8615 300.36 51.8621 300.36 51.8627C300.36 51.8633 300.36 51.8639 300.36 51.8645C300.36 51.8651 300.36 51.8657 300.36 51.8663C300.36 51.8669 300.36 51.8675 300.36 51.8681C300.36 51.8687 300.36 51.8693 300.36 51.8699C300.36 51.8705 300.36 51.8711 300.36 51.8717C300.36 51.8723 300.36 51.8729 300.36 51.8735C300.36 51.8741 300.36 51.8747 300.36 51.8754C300.36 51.876 300.36 51.8766 300.36 51.8772C300.36 51.8778 300.36 51.8784 300.36 51.879C300.36 51.8796 300.36 51.8802 300.36 51.8808C300.36 51.8814 300.36 51.882 300.36 51.8826C300.36 51.8833 300.36 51.8839 300.36 51.8845C300.36 51.8851 300.36 51.8857 300.36 51.8863C300.36 51.8869 300.36 51.8875 300.36 51.8882C300.36 51.8888 300.36 51.8894 300.36 51.89C300.36 51.8906 300.36 51.8912 300.36 51.8918C300.36 51.8925 300.36 51.8931 300.36 51.8937C300.36 51.8943 300.36 51.8949 300.36 51.8955C300.36 51.8962 300.36 51.8968 300.36 51.8974C300.36 51.898 300.36 51.8986 300.36 51.8993C300.36 51.8999 300.36 51.9005 300.36 51.9011C300.36 51.9017 300.36 51.9024 300.36 51.903C300.36 51.9036 300.36 51.9042 300.36 51.9048C300.36 51.9055 300.36 51.9061 300.36 51.9067C300.36 51.9073 300.36 51.908 300.36 51.9086C300.36 51.9092 300.36 51.9098 300.36 51.9105C300.36 51.9111 300.36 51.9117 300.36 51.9123C300.36 51.913 300.36 51.9136 300.36 51.9142C300.36 51.9148 300.36 51.9155 300.36 51.9161C300.36 51.9167 300.36 51.9174 300.36 51.918C300.36 51.9186 300.36 51.9193 300.36 51.9199C300.36 51.9205 300.36 51.9211 300.36 51.9218C300.36 51.9224 300.36 51.923 300.36 51.9237C300.36 51.9243 300.36 51.9249 300.36 51.9256C300.36 51.9262 300.36 51.9268 300.36 51.9275C300.36 51.9281 300.36 51.9287 300.36 51.9294C300.36 51.93 300.36 51.9307 300.36 51.9313C300.36 51.9319 300.36 51.9326 300.36 51.9332C300.36 51.9338 300.36 51.9345 300.36 51.9351C300.36 51.9358 300.36 51.9364 300.36 51.937C300.36 51.9377 300.36 51.9383 300.36 51.939C300.36 51.9396 300.36 51.9402 300.36 51.9409C300.36 51.9415 300.36 51.9422 300.36 51.9428C300.36 51.9434 300.36 51.9441 300.36 51.9447C300.36 51.9454 300.36 51.946 300.36 51.9467C300.36 51.9473 300.36 51.948 300.36 51.9486C300.36 51.9493 300.36 51.9499 300.36 51.9505C300.36 51.9512 300.36 51.9518 300.36 51.9525C300.36 51.9531 300.36 51.9538 300.36 51.9544C300.36 51.9551 300.36 51.9557 300.36 51.9564C300.36 51.957 300.36 51.9577 300.36 51.9583C300.36 51.959 300.36 51.9596 300.36 51.9603C300.36 51.9609 300.36 51.9616 300.36 51.9622C300.36 51.9629 300.36 51.9636 300.36 51.9642C300.36 51.9649 300.36 51.9655 300.36 51.9662C300.36 51.9668 300.36 51.9675 300.36 51.9681C300.36 51.9688 300.36 51.9695 300.36 51.9701C300.36 51.9708 300.36 51.9714 300.36 51.9721C300.36 51.9727 300.36 51.9734 300.36 51.9741C300.36 51.9747 300.36 51.9754 300.36 51.976C300.36 51.9767 300.36 51.9774 300.36 51.978C300.36 51.9787 300.36 51.9793 300.36 51.98C300.36 51.9807 300.36 51.9813 300.36 51.982C300.36 51.9827 300.36 51.9833 300.36 51.984C300.36 51.9846 300.36 51.9853 300.36 51.986C300.36 51.9866 300.36 51.9873 300.36 51.988C300.36 51.9886 300.36 51.9893 300.36 51.99C300.36 51.9906 300.36 51.9913 300.36 51.992C300.36 51.9926 300.36 51.9933 300.36 51.994C300.36 51.9947 300.36 51.9953 300.36 51.996C300.36 51.9967 300.36 51.9973 300.36 51.998C300.36 51.9987 300.36 51.9993 300.36 52C300.36 52.0007 300.36 52.0014 300.36 52.002C300.36 52.0027 300.36 52.0034 300.36 52.0041C300.36 52.0047 300.36 52.0054 300.36 52.0061C300.36 52.0068 300.36 52.0074 300.36 52.0081C300.36 52.0088 300.36 52.0095 300.36 52.0101C300.36 52.0108 300.36 52.0115 300.36 52.0122C300.36 52.0129 300.36 52.0135 300.36 52.0142C300.36 52.0149 300.36 52.0156 300.36 52.0163C300.36 52.0169 300.36 52.0176 300.36 52.0183C300.36 52.019 300.36 52.0197 300.36 52.0203C300.36 52.021 300.36 52.0217 300.36 52.0224C300.36 52.0231 300.36 52.0238 300.36 52.0244C300.36 52.0251 300.36 52.0258 300.36 52.0265C300.36 52.0272 300.36 52.0279 300.36 52.0286C300.36 52.0292 300.36 52.0299 300.36 52.0306C300.36 52.0313 300.36 52.032 300.36 52.0327C300.36 52.0334 300.36 52.0341 300.36 52.0348C300.36 52.0354 300.36 52.0361 300.36 52.0368C300.36 52.0375 300.36 52.0382 300.36 52.0389C300.36 52.0396 300.36 52.0403 300.36 52.041C300.36 52.0417 300.36 52.0424 300.36 52.0431C300.36 52.0438 300.36 52.0444 300.36 52.0451C300.36 52.0458 300.36 52.0465 300.36 52.0472C300.36 52.0479 300.36 52.0486 300.36 52.0493C300.36 52.05 300.36 52.0507 300.36 52.0514C300.36 52.0521 300.36 52.0528 300.36 52.0535C300.36 52.0542 300.36 52.0549 300.36 52.0556C300.36 52.0563 300.36 52.057 300.36 52.0577C300.36 52.0584 300.36 52.0591 300.36 52.0598C300.36 52.0605 300.36 52.0612 300.36 52.0619C300.36 52.0626 300.36 52.0633 300.36 52.064C300.36 52.0647 300.36 52.0654 300.36 52.0661C300.36 52.0668 300.36 52.0675 300.36 52.0683C300.36 52.069 300.36 52.0697 300.36 52.0704C300.36 52.0711 300.36 52.0718 300.36 52.0725C300.36 52.0732 300.36 52.0739 300.36 52.0746C300.36 52.0753 300.36 52.076 300.36 52.0767C300.36 52.0775 300.36 52.0782 300.36 52.0789C300.36 52.0796 300.36 52.0803 300.36 52.081C300.36 52.0817 300.36 52.0824 300.36 52.0832C300.36 52.0839 300.36 52.0846 300.36 52.0853C300.36 52.086 300.36 52.0867 300.36 52.0874C300.36 52.0882 300.36 52.0889 300.36 52.0896C300.36 52.0903 300.36 52.091 300.36 52.0917C300.36 52.0925 300.36 52.0932 300.36 52.0939C300.36 52.0946 300.36 52.0953 300.36 52.096C300.36 52.0968 300.36 52.0975 300.36 52.0982C300.36 52.0989 300.36 52.0996 300.36 52.1004C300.36 52.1011 300.36 52.1018 300.36 52.1025C300.36 52.1033 300.36 52.104 300.36 52.1047C300.36 52.1054 300.36 52.1061 300.36 52.1069C300.36 52.1076 300.36 52.1083 300.36 52.109C300.36 52.1098 300.36 52.1105 300.36 52.1112C300.36 52.1119 300.36 52.1127 300.36 52.1134C300.36 52.1141 300.36 52.1149 300.36 52.1156C300.36 52.1163 300.36 52.117 300.36 52.1178C300.36 52.1185 300.36 52.1192 300.36 52.12C300.36 52.1207 300.36 52.1214 300.36 52.1222C300.36 52.1229 300.36 52.1236 300.36 52.1243C300.36 52.1251 300.36 52.1258 300.36 52.1265C300.36 52.1273 300.36 52.128 300.36 52.1287C300.36 52.1295 300.36 52.1302 300.36 52.131C300.36 52.1317 300.36 52.1324 300.36 52.1332C300.36 52.1339 300.36 52.1346 300.36 52.1354C300.36 52.1361 300.36 52.1368 300.36 52.1376C300.36 52.1383 300.36 52.1391 300.36 52.1398C300.36 52.1405 300.36 52.1413 300.36 52.142C300.36 52.1428 300.36 52.1435 300.36 52.1442C300.36 52.145 300.36 52.1457 300.36 52.1465C300.36 52.1472 300.36 52.148 300.36 52.1487C300.36 52.1494 300.36 52.1502 300.36 52.1509C300.36 52.1517 300.36 52.1524 300.36 52.1532C300.36 52.1539 300.36 52.1547 300.36 52.1554C300.36 52.1562 300.36 52.1569 300.36 52.1577C300.36 52.1584 300.36 52.1591 300.36 52.1599C300.36 52.1606 300.36 52.1614 300.36 52.1621C300.36 52.1629 300.36 52.1636 300.36 52.1644C300.36 52.1651 300.36 52.1659 300.36 52.1666C300.36 52.1674 300.36 52.1682 300.36 52.1689C300.36 52.1697 300.36 52.1704 300.36 52.1712C300.36 52.1719 300.36 52.1727 300.36 52.1734C300.36 52.1742 300.36 52.1749 300.36 52.1757C300.36 52.1764 300.36 52.1772 300.36 52.178C300.36 52.1787 300.36 52.1795 300.36 52.1802C300.36 52.181 300.36 52.1818 300.36 52.1825C300.36 52.1833 300.36 52.184 300.36 52.1848C300.36 52.1855 300.36 52.1863 300.36 52.1871C300.36 52.1878 300.36 52.1886 300.36 52.1894C300.36 52.1901 300.36 52.1909 300.36 52.1916C300.36 52.1924 300.36 52.1932 300.36 52.1939C300.36 52.1947 300.36 52.1955 300.36 52.1962C300.36 52.197 300.36 52.1978 300.36 52.1985C300.36 52.1993 300.36 52.2001 300.36 52.2008C300.36 52.2016 300.36 52.2024 300.36 52.2031C300.36 52.2039 300.36 52.2047 300.36 52.2054C300.36 52.2062 300.36 52.207 300.36 52.2077C300.36 52.2085 300.36 52.2093 300.36 52.21C300.36 52.2108 300.36 52.2116 300.36 52.2124C300.36 52.2131 300.36 52.2139 300.36 52.2147C300.36 52.2155 300.36 52.2162 300.36 52.217C300.36 52.2178 300.36 52.2186 300.36 52.2193C300.36 52.2201 300.36 52.2209 300.36 52.2217C300.36 52.2224 300.36 52.2232 300.36 52.224C300.36 52.2248 300.36 52.2255 300.36 52.2263C300.36 52.2271 300.36 52.2279 300.36 52.2287C300.36 52.2294 300.36 52.2302 300.36 52.231C300.36 52.2318 300.36 52.2326 300.36 52.2333C300.36 52.2341 300.36 52.2349 300.36 52.2357C300.36 52.2365 300.36 52.2372 300.36 52.238C300.36 52.2388 300.36 52.2396 300.36 52.2404C300.36 52.2412 300.36 52.2419 300.36 52.2427C300.36 52.2435 300.36 52.2443 300.36 52.2451C300.36 52.2459 300.36 52.2467 300.36 52.2475C300.36 52.2482 300.36 52.249 300.36 52.2498C300.36 52.2506 300.36 52.2514 300.36 52.2522C300.36 52.253 300.36 52.2538 300.36 52.2546C300.36 52.2553 300.36 52.2561 300.36 52.2569C300.36 52.2577 300.36 52.2585 300.36 52.2593C300.36 52.2601 300.36 52.2609 300.36 52.2617C300.36 52.2625 300.36 52.2633 300.36 52.2641C300.36 52.2649 300.36 52.2656 300.36 52.2664C300.36 52.2672 300.36 52.268 300.36 52.2688C300.36 52.2696 300.36 52.2704 300.36 52.2712C300.36 52.272 300.36 52.2728 300.36 52.2736C300.36 52.2744 300.36 52.2752 300.36 52.276C300.36 52.2768 300.36 52.2776 300.36 52.2784C300.36 52.2792 300.36 52.28 300.36 52.2808C300.36 52.2816 300.36 52.2824 300.36 52.2832C300.36 52.284 300.36 52.2848 300.36 52.2856C300.36 52.2864 300.36 52.2872 300.36 52.288C300.36 52.2889 300.36 52.2897 300.36 52.2905C300.36 52.2913 300.36 52.2921 300.36 52.2929C300.36 52.2937 300.36 52.2945 300.36 52.2953C300.36 52.2961 300.36 52.2969 300.36 52.2977C300.36 52.2985 300.36 52.2993 300.36 52.3002C300.36 52.301 300.36 52.3018 300.36 52.3026C300.36 52.3034 300.36 52.3042 300.36 52.305C300.36 52.3058 300.36 52.3066 300.36 52.3075C300.36 52.3083 300.36 52.3091 300.36 52.3099C300.36 52.3107 300.36 52.3115 300.36 52.3123C300.36 52.3132 300.36 52.314 300.36 52.3148C300.36 52.3156 300.36 52.3164 300.36 52.3172C300.36 52.3181 300.36 52.3189 300.36 52.3197C300.36 52.3205 300.36 52.3213 300.36 52.3221C300.36 52.323 300.36 52.3238 300.36 52.3246C300.36 52.3254 300.36 52.3262 300.36 52.3271C300.36 52.3279 300.36 52.3287 300.36 52.3295C300.36 52.3303 300.36 52.3312 300.36 52.332C300.36 52.3328 300.36 52.3336 300.36 52.3345C300.36 52.3353 300.36 52.3361 300.36 52.3369C300.36 52.3378 300.36 52.3386 300.36 52.3394C300.36 52.3402 300.36 52.3411 300.36 52.3419C300.36 52.3427 300.36 52.3435 300.36 52.3444C300.36 52.3452 300.36 52.346 300.36 52.3469C300.36 52.3477 300.36 52.3485 300.36 52.3493C300.36 52.3502 300.36 52.351 300.36 52.3518C300.36 52.3527 300.36 52.3535 300.36 52.3543C300.36 52.3552 300.36 52.356 300.36 52.3568C300.36 52.3577 300.36 52.3585 300.36 52.3593C300.36 52.3602 300.36 52.361 300.36 52.3618C300.36 52.3627 300.36 52.3635 300.36 52.3643C300.36 52.3652 300.36 52.366 300.36 52.3669C300.36 52.3677 300.36 52.3685 300.36 52.3694C300.36 52.3702 300.36 52.371 300.36 52.3719C300.36 52.3727 300.36 52.3736 300.36 52.3744C300.36 52.3752 300.36 52.3761 300.36 52.3769C300.36 52.3778 300.36 52.3786 300.36 52.3795C300.36 52.3803 300.36 52.3811 300.36 52.382C300.36 52.3828 300.36 52.3837 300.36 52.3845C300.36 52.3854 300.36 52.3862 300.36 52.387C300.36 52.3879 300.36 52.3887 300.36 52.3896C300.36 52.3904 300.36 52.3913 300.36 52.3921C300.36 52.393 300.36 52.3938 300.36 52.3947C300.36 52.3955 300.36 52.3964 300.36 52.3972C300.36 52.3981 300.36 52.3989 300.36 52.3998C300.36 52.4006 300.36 52.4015 300.36 52.4023C300.36 52.4032 300.36 52.404 300.36 52.4049C300.36 52.4057 300.36 52.4066 300.36 52.4074C300.36 52.4083 300.36 52.4091 300.36 52.41C300.36 52.4108 300.36 52.4117 300.36 52.4126C300.36 52.4134 300.36 52.4143 300.36 52.4151C300.36 52.416 300.36 52.4168 300.36 52.4177C300.36 52.4186 300.36 52.4194 300.36 52.4203C300.36 52.4211 300.36 52.422 300.36 52.4228C300.36 52.4237 300.36 52.4246 300.36 52.4254C300.36 52.4263 300.36 52.4272 300.36 52.428C300.36 52.4289 300.36 52.4297 300.36 52.4306C300.36 52.4315 300.36 52.4323 300.36 52.4332C300.36 52.4341 300.36 52.4349 300.36 52.4358C300.36 52.4366 300.36 52.4375 300.36 52.4384C300.36 52.4392 300.36 52.4401 300.36 52.441C300.36 52.4418 300.36 52.4427 300.36 52.4436C300.36 52.4444 300.36 52.4453 300.36 52.4462C300.36 52.4471 300.36 52.4479 300.36 52.4488C300.36 52.4497 300.36 52.4505 300.36 52.4514C300.36 52.4523 300.36 52.4531 300.36 52.454C300.36 52.4549 300.36 52.4558 300.36 52.4566C300.36 52.4575 300.36 52.4584 300.36 52.4593C300.36 52.4601 300.36 52.461 300.36 52.4619C300.36 52.4627 300.36 52.4636 300.36 52.4645C300.36 52.4654 300.36 52.4663 300.36 52.4671C300.36 52.468 300.36 52.4689 300.36 52.4698C300.36 52.4706 300.36 52.4715 300.36 52.4724C300.36 52.4733 300.36 52.4742 300.36 52.475C300.36 52.4759 300.36 52.4768 300.36 52.4777C300.36 52.4786 300.36 52.4794 300.36 52.4803C300.36 52.4812 300.36 52.4821 300.36 52.483C300.36 52.4839 300.36 52.4847 300.36 52.4856C300.36 52.4865 300.36 52.4874 300.36 52.4883C300.36 52.4892 300.36 52.49 300.36 52.4909C300.36 52.4918 300.36 52.4927 300.36 52.4936C300.36 52.4945 300.36 52.4954 300.36 52.4962C300.36 52.4971 300.36 52.498 300.36 52.4989C300.36 52.4998 300.36 52.5007 300.36 52.5016C300.36 52.5025 300.36 52.5034 300.36 52.5043C300.36 52.5051 300.36 52.506 300.36 52.5069C300.36 52.5078 300.36 52.5087 300.36 52.5096C300.36 52.5105 300.36 52.5114 300.36 52.5123C300.36 52.5132 300.36 52.5141 300.36 52.515C300.36 52.5159 300.36 52.5168 300.36 52.5177C300.36 52.5186 300.36 52.5195 300.36 52.5204C300.36 52.5212 300.36 52.5221 300.36 52.523C300.36 52.5239 300.36 52.5248 300.36 52.5257C300.36 52.5266 300.36 52.5275 300.36 52.5284C300.36 52.5293 300.36 52.5302 300.36 52.5311C300.36 52.532 300.36 52.5329 300.36 52.5338C300.36 52.5347 300.36 52.5357 300.36 52.5366C300.36 52.5375 300.36 52.5384 300.36 52.5393C300.36 52.5402 300.36 52.5411 300.36 52.542C300.36 52.5429 300.36 52.5438 300.36 52.5447C300.36 52.5456 300.36 52.5465 300.36 52.5474C300.36 52.5483 300.36 52.5492 300.36 52.5501C300.36 52.5511 300.36 52.552 300.36 52.5529C300.36 52.5538 300.36 52.5547 300.36 52.5556C300.36 52.5565 300.36 52.5574 300.36 52.5583C300.36 52.5592 300.36 52.5602 300.36 52.5611C300.36 52.562 300.36 52.5629 300.36 52.5638C300.36 52.5647 300.36 52.5656 300.36 52.5666C300.36 52.5675 300.36 52.5684 300.36 52.5693C300.36 52.5702 300.36 52.5711 300.36 52.572C300.36 52.573 300.36 52.5739 300.36 52.5748C300.36 52.5757 300.36 52.5766 300.36 52.5775C300.36 52.5785 300.36 52.5794 300.36 52.5803C300.36 52.5812 300.36 52.5821 300.36 52.5831C300.36 52.584 300.36 52.5849 300.36 52.5858C300.36 52.5868 300.36 52.5877 300.36 52.5886C300.36 52.5895 300.36 52.5904 300.36 52.5914C300.36 52.5923 300.36 52.5932 300.36 52.5941C300.36 52.5951 300.36 52.596 300.36 52.5969C300.36 52.5978 300.36 52.5988 300.36 52.5997C300.36 52.6006 300.36 52.6015 300.36 52.6025C300.36 52.6034 300.36 52.6043 300.36 52.6053C300.36 52.6062 300.36 52.6071 300.36 52.608C300.36 52.609 300.36 52.6099 300.36 52.6108C300.36 52.6118 300.36 52.6127 300.36 52.6136C300.36 52.6146 300.36 52.6155 300.36 52.6164C300.36 52.6174 300.36 52.6183 300.36 52.6192C300.36 52.6202 300.36 52.6211 300.36 52.622C300.36 52.623 300.36 52.6239 300.36 52.6248C300.36 52.6258 300.36 52.6267 300.36 52.6276C300.36 52.6286 300.36 52.6295 300.36 52.6305C300.36 52.6314 300.36 52.6323 300.36 52.6333C300.36 52.6342 300.36 52.6352 300.36 52.6361C300.36 52.637 300.36 52.638 300.36 52.6389C300.36 52.6399 300.36 52.6408 300.36 52.6417C300.36 52.6427 300.36 52.6436 300.36 52.6446C300.36 52.6455 300.36 52.6465 300.36 52.6474C300.36 52.6483 300.36 52.6493 300.36 52.6502C300.36 52.6512 300.36 52.6521 300.36 52.6531C300.36 52.654 300.36 52.655 300.36 52.6559C300.36 52.6569 300.36 52.6578 300.36 52.6587C300.36 52.6597 300.36 52.6606 300.36 52.6616C300.36 52.6625 300.36 52.6635 300.36 52.6644C300.36 52.6654 300.36 52.6663 300.36 52.6673C300.36 52.6682 300.36 52.6692 300.36 52.6701C300.36 52.6711 300.36 52.6721 300.36 52.673C300.36 52.674 300.36 52.6749 300.36 52.6759C300.36 52.6768 300.36 52.6778 300.36 52.6787C300.36 52.6797 300.36 52.6806 300.36 52.6816C300.36 52.6826 300.36 52.6835 300.36 52.6845C300.36 52.6854 300.36 52.6864 300.36 52.6873C300.36 52.6883 300.36 52.6893 300.36 52.6902C300.36 52.6912 300.36 52.6921 300.36 52.6931C300.36 52.6941 300.36 52.695 300.36 52.696C300.36 52.6969 300.36 52.6979 300.36 52.6989C300.36 52.6998 300.36 52.7008 300.36 52.7018C300.36 52.7027 300.36 52.7037 300.36 52.7046C300.36 52.7056 300.36 52.7066 300.36 52.7075C300.36 52.7085 300.36 52.7095 300.36 52.7104C300.36 52.7114 300.36 52.7124 300.36 52.7133C300.36 52.7143 300.36 52.7153 300.36 52.7162C300.36 52.7172 300.36 52.7182 300.36 52.7192C300.36 52.7201 300.36 52.7211 300.36 52.7221C300.36 52.723 300.36 52.724 300.36 52.725C300.36 52.7259 300.36 52.7269 300.36 52.7279C300.36 52.7289 300.36 52.7298 300.36 52.7308C300.36 52.7318 300.36 52.7328 300.36 52.7337C300.36 52.7347 300.36 52.7357 300.36 52.7367C300.36 52.7376 300.36 52.7386 300.36 52.7396C300.36 52.7406 300.36 52.7415 300.36 52.7425C300.36 52.7435 300.36 52.7445 300.36 52.7454C300.36 52.7464 300.36 52.7474 300.36 52.7484C300.36 52.7494 300.36 52.7503 300.36 52.7513C300.36 52.7523 300.36 52.7533 300.36 52.7543C300.36 52.7553 300.36 52.7562 300.36 52.7572C300.36 52.7582 300.36 52.7592 300.36 52.7602C300.36 52.7611 300.36 52.7621 300.36 52.7631C300.36 52.7641 300.36 52.7651 300.36 52.7661C300.36 52.7671 300.36 52.768 300.36 52.769C300.36 52.77 300.36 52.771 300.36 52.772C300.36 52.773 300.36 52.774 300.36 52.775C300.36 52.7759 300.36 52.7769 300.36 52.7779C300.36 52.7789 300.36 52.7799 300.36 52.7809C300.36 52.7819 300.36 52.7829 300.36 52.7839C300.36 52.7849 300.36 52.7859 300.36 52.7868C300.36 52.7878 300.36 52.7888 300.36 52.7898C300.36 52.7908 300.36 52.7918 300.36 52.7928C300.36 52.7938 300.36 52.7948 300.36 52.7958C300.36 52.7968 300.36 52.7978 300.36 52.7988C300.36 52.7998 300.36 52.8008 300.36 52.8018C300.36 52.8028 300.36 52.8038 300.36 52.8048C300.36 52.8058 300.36 52.8068 300.36 52.8078C300.36 52.8088 300.36 52.8098 300.36 52.8108C300.36 52.8118 300.36 52.8128 300.36 52.8138C300.36 52.8148 300.36 52.8158 300.36 52.8168C300.36 52.8178 300.36 52.8188 300.36 52.8198C300.36 52.8208 300.36 52.8218 300.36 52.8228C300.36 52.8238 300.36 52.8248 300.36 52.8258C300.36 52.8268 300.36 52.8278 300.36 52.8288C300.36 52.8299 300.36 52.8309 300.36 52.8319C300.36 52.8329 300.36 52.8339 300.36 52.8349C300.36 52.8359 300.36 52.8369 300.36 52.8379C300.36 52.8389 300.36 52.8399 300.36 52.841C300.36 52.842 300.36 52.843 300.36 52.844C300.36 52.845 300.36 52.846 300.36 52.847C300.36 52.848 300.36 52.8491 300.36 52.8501C300.36 52.8511 300.36 52.8521 300.36 52.8531C300.36 52.8541 300.36 52.8551 300.36 52.8562C300.36 52.8572 300.36 52.8582 300.36 52.8592C300.36 52.8602 300.36 52.8612 300.36 52.8623C300.36 52.8633 300.36 52.8643 300.36 52.8653C300.36 52.8663 300.36 52.8674 300.36 52.8684C300.36 52.8694 300.36 52.8704 300.36 52.8714C300.36 52.8725 300.36 52.8735 300.36 52.8745C300.36 52.8755 300.36 52.8766 300.36 52.8776C300.36 52.8786 300.36 52.8796 300.36 52.8806C300.36 52.8817 300.36 52.8827 300.36 52.8837C300.36 52.8847 300.36 52.8858 300.36 52.8868C300.36 52.8878 300.36 52.8889 300.36 52.8899C300.36 52.8909 300.36 52.8919 300.36 52.893C300.36 52.894 300.36 52.895 300.36 52.8961C300.36 52.8971 300.36 52.8981 300.36 52.8991C300.36 52.9002 300.36 52.9012 300.36 52.9022C300.36 52.9033 300.36 52.9043 300.36 52.9053C300.36 52.9064 300.36 52.9074 300.36 52.9084C300.36 52.9095 300.36 52.9105 300.36 52.9115C300.36 52.9126 300.36 52.9136 300.36 52.9146C300.36 52.9157 300.36 52.9167 300.36 52.9177C300.36 52.9188 300.36 52.9198 300.36 52.9209C300.36 52.9219 300.36 52.9229 300.36 52.924C300.36 52.925 300.36 52.926 300.36 52.9271C300.36 52.9281 300.36 52.9292 300.36 52.9302C300.36 52.9312 300.36 52.9323 300.36 52.9333H302.36C302.36 52.9323 302.36 52.9312 302.36 52.9302C302.36 52.9292 302.36 52.9281 302.36 52.9271C302.36 52.926 302.36 52.925 302.36 52.924C302.36 52.9229 302.36 52.9219 302.36 52.9209C302.36 52.9198 302.36 52.9188 302.36 52.9177C302.36 52.9167 302.36 52.9157 302.36 52.9146C302.36 52.9136 302.36 52.9126 302.36 52.9115C302.36 52.9105 302.36 52.9095 302.36 52.9084C302.36 52.9074 302.36 52.9064 302.36 52.9053C302.36 52.9043 302.36 52.9033 302.36 52.9022C302.36 52.9012 302.36 52.9002 302.36 52.8991C302.36 52.8981 302.36 52.8971 302.36 52.8961C302.36 52.895 302.36 52.894 302.36 52.893C302.36 52.8919 302.36 52.8909 302.36 52.8899C302.36 52.8889 302.36 52.8878 302.36 52.8868C302.36 52.8858 302.36 52.8847 302.36 52.8837C302.36 52.8827 302.36 52.8817 302.36 52.8806C302.36 52.8796 302.36 52.8786 302.36 52.8776C302.36 52.8766 302.36 52.8755 302.36 52.8745C302.36 52.8735 302.36 52.8725 302.36 52.8714C302.36 52.8704 302.36 52.8694 302.36 52.8684C302.36 52.8674 302.36 52.8663 302.36 52.8653C302.36 52.8643 302.36 52.8633 302.36 52.8623C302.36 52.8612 302.36 52.8602 302.36 52.8592C302.36 52.8582 302.36 52.8572 302.36 52.8562C302.36 52.8551 302.36 52.8541 302.36 52.8531C302.36 52.8521 302.36 52.8511 302.36 52.8501C302.36 52.8491 302.36 52.848 302.36 52.847C302.36 52.846 302.36 52.845 302.36 52.844C302.36 52.843 302.36 52.842 302.36 52.841C302.36 52.8399 302.36 52.8389 302.36 52.8379C302.36 52.8369 302.36 52.8359 302.36 52.8349C302.36 52.8339 302.36 52.8329 302.36 52.8319C302.36 52.8309 302.36 52.8299 302.36 52.8288C302.36 52.8278 302.36 52.8268 302.36 52.8258C302.36 52.8248 302.36 52.8238 302.36 52.8228C302.36 52.8218 302.36 52.8208 302.36 52.8198C302.36 52.8188 302.36 52.8178 302.36 52.8168C302.36 52.8158 302.36 52.8148 302.36 52.8138C302.36 52.8128 302.36 52.8118 302.36 52.8108C302.36 52.8098 302.36 52.8088 302.36 52.8078C302.36 52.8068 302.36 52.8058 302.36 52.8048C302.36 52.8038 302.36 52.8028 302.36 52.8018C302.36 52.8008 302.36 52.7998 302.36 52.7988C302.36 52.7978 302.36 52.7968 302.36 52.7958C302.36 52.7948 302.36 52.7938 302.36 52.7928C302.36 52.7918 302.36 52.7908 302.36 52.7898C302.36 52.7888 302.36 52.7878 302.36 52.7868C302.36 52.7859 302.36 52.7849 302.36 52.7839C302.36 52.7829 302.36 52.7819 302.36 52.7809C302.36 52.7799 302.36 52.7789 302.36 52.7779C302.36 52.7769 302.36 52.7759 302.36 52.775C302.36 52.774 302.36 52.773 302.36 52.772C302.36 52.771 302.36 52.77 302.36 52.769C302.36 52.768 302.36 52.7671 302.36 52.7661C302.36 52.7651 302.36 52.7641 302.36 52.7631C302.36 52.7621 302.36 52.7611 302.36 52.7602C302.36 52.7592 302.36 52.7582 302.36 52.7572C302.36 52.7562 302.36 52.7553 302.36 52.7543C302.36 52.7533 302.36 52.7523 302.36 52.7513C302.36 52.7503 302.36 52.7494 302.36 52.7484C302.36 52.7474 302.36 52.7464 302.36 52.7454C302.36 52.7445 302.36 52.7435 302.36 52.7425C302.36 52.7415 302.36 52.7406 302.36 52.7396C302.36 52.7386 302.36 52.7376 302.36 52.7367C302.36 52.7357 302.36 52.7347 302.36 52.7337C302.36 52.7328 302.36 52.7318 302.36 52.7308C302.36 52.7298 302.36 52.7289 302.36 52.7279C302.36 52.7269 302.36 52.7259 302.36 52.725C302.36 52.724 302.36 52.723 302.36 52.7221C302.36 52.7211 302.36 52.7201 302.36 52.7192C302.36 52.7182 302.36 52.7172 302.36 52.7162C302.36 52.7153 302.36 52.7143 302.36 52.7133C302.36 52.7124 302.36 52.7114 302.36 52.7104C302.36 52.7095 302.36 52.7085 302.36 52.7075C302.36 52.7066 302.36 52.7056 302.36 52.7046C302.36 52.7037 302.36 52.7027 302.36 52.7018C302.36 52.7008 302.36 52.6998 302.36 52.6989C302.36 52.6979 302.36 52.6969 302.36 52.696C302.36 52.695 302.36 52.6941 302.36 52.6931C302.36 52.6921 302.36 52.6912 302.36 52.6902C302.36 52.6893 302.36 52.6883 302.36 52.6873C302.36 52.6864 302.36 52.6854 302.36 52.6845C302.36 52.6835 302.36 52.6826 302.36 52.6816C302.36 52.6806 302.36 52.6797 302.36 52.6787C302.36 52.6778 302.36 52.6768 302.36 52.6759C302.36 52.6749 302.36 52.674 302.36 52.673C302.36 52.6721 302.36 52.6711 302.36 52.6701C302.36 52.6692 302.36 52.6682 302.36 52.6673C302.36 52.6663 302.36 52.6654 302.36 52.6644C302.36 52.6635 302.36 52.6625 302.36 52.6616C302.36 52.6606 302.36 52.6597 302.36 52.6587C302.36 52.6578 302.36 52.6569 302.36 52.6559C302.36 52.655 302.36 52.654 302.36 52.6531C302.36 52.6521 302.36 52.6512 302.36 52.6502C302.36 52.6493 302.36 52.6483 302.36 52.6474C302.36 52.6465 302.36 52.6455 302.36 52.6446C302.36 52.6436 302.36 52.6427 302.36 52.6417C302.36 52.6408 302.36 52.6399 302.36 52.6389C302.36 52.638 302.36 52.637 302.36 52.6361C302.36 52.6352 302.36 52.6342 302.36 52.6333C302.36 52.6323 302.36 52.6314 302.36 52.6305C302.36 52.6295 302.36 52.6286 302.36 52.6276C302.36 52.6267 302.36 52.6258 302.36 52.6248C302.36 52.6239 302.36 52.623 302.36 52.622C302.36 52.6211 302.36 52.6202 302.36 52.6192C302.36 52.6183 302.36 52.6174 302.36 52.6164C302.36 52.6155 302.36 52.6146 302.36 52.6136C302.36 52.6127 302.36 52.6118 302.36 52.6108C302.36 52.6099 302.36 52.609 302.36 52.608C302.36 52.6071 302.36 52.6062 302.36 52.6053C302.36 52.6043 302.36 52.6034 302.36 52.6025C302.36 52.6015 302.36 52.6006 302.36 52.5997C302.36 52.5988 302.36 52.5978 302.36 52.5969C302.36 52.596 302.36 52.5951 302.36 52.5941C302.36 52.5932 302.36 52.5923 302.36 52.5914C302.36 52.5904 302.36 52.5895 302.36 52.5886C302.36 52.5877 302.36 52.5868 302.36 52.5858C302.36 52.5849 302.36 52.584 302.36 52.5831C302.36 52.5821 302.36 52.5812 302.36 52.5803C302.36 52.5794 302.36 52.5785 302.36 52.5775C302.36 52.5766 302.36 52.5757 302.36 52.5748C302.36 52.5739 302.36 52.573 302.36 52.572C302.36 52.5711 302.36 52.5702 302.36 52.5693C302.36 52.5684 302.36 52.5675 302.36 52.5666C302.36 52.5656 302.36 52.5647 302.36 52.5638C302.36 52.5629 302.36 52.562 302.36 52.5611C302.36 52.5602 302.36 52.5592 302.36 52.5583C302.36 52.5574 302.36 52.5565 302.36 52.5556C302.36 52.5547 302.36 52.5538 302.36 52.5529C302.36 52.552 302.36 52.5511 302.36 52.5501C302.36 52.5492 302.36 52.5483 302.36 52.5474C302.36 52.5465 302.36 52.5456 302.36 52.5447C302.36 52.5438 302.36 52.5429 302.36 52.542C302.36 52.5411 302.36 52.5402 302.36 52.5393C302.36 52.5384 302.36 52.5375 302.36 52.5366C302.36 52.5357 302.36 52.5347 302.36 52.5338C302.36 52.5329 302.36 52.532 302.36 52.5311C302.36 52.5302 302.36 52.5293 302.36 52.5284C302.36 52.5275 302.36 52.5266 302.36 52.5257C302.36 52.5248 302.36 52.5239 302.36 52.523C302.36 52.5221 302.36 52.5212 302.36 52.5204C302.36 52.5195 302.36 52.5186 302.36 52.5177C302.36 52.5168 302.36 52.5159 302.36 52.515C302.36 52.5141 302.36 52.5132 302.36 52.5123C302.36 52.5114 302.36 52.5105 302.36 52.5096C302.36 52.5087 302.36 52.5078 302.36 52.5069C302.36 52.506 302.36 52.5051 302.36 52.5043C302.36 52.5034 302.36 52.5025 302.36 52.5016C302.36 52.5007 302.36 52.4998 302.36 52.4989C302.36 52.498 302.36 52.4971 302.36 52.4962C302.36 52.4954 302.36 52.4945 302.36 52.4936C302.36 52.4927 302.36 52.4918 302.36 52.4909C302.36 52.49 302.36 52.4892 302.36 52.4883C302.36 52.4874 302.36 52.4865 302.36 52.4856C302.36 52.4847 302.36 52.4839 302.36 52.483C302.36 52.4821 302.36 52.4812 302.36 52.4803C302.36 52.4794 302.36 52.4786 302.36 52.4777C302.36 52.4768 302.36 52.4759 302.36 52.475C302.36 52.4742 302.36 52.4733 302.36 52.4724C302.36 52.4715 302.36 52.4706 302.36 52.4698C302.36 52.4689 302.36 52.468 302.36 52.4671C302.36 52.4663 302.36 52.4654 302.36 52.4645C302.36 52.4636 302.36 52.4627 302.36 52.4619C302.36 52.461 302.36 52.4601 302.36 52.4593C302.36 52.4584 302.36 52.4575 302.36 52.4566C302.36 52.4558 302.36 52.4549 302.36 52.454C302.36 52.4531 302.36 52.4523 302.36 52.4514C302.36 52.4505 302.36 52.4497 302.36 52.4488C302.36 52.4479 302.36 52.4471 302.36 52.4462C302.36 52.4453 302.36 52.4444 302.36 52.4436C302.36 52.4427 302.36 52.4418 302.36 52.441C302.36 52.4401 302.36 52.4392 302.36 52.4384C302.36 52.4375 302.36 52.4366 302.36 52.4358C302.36 52.4349 302.36 52.4341 302.36 52.4332C302.36 52.4323 302.36 52.4315 302.36 52.4306C302.36 52.4297 302.36 52.4289 302.36 52.428C302.36 52.4272 302.36 52.4263 302.36 52.4254C302.36 52.4246 302.36 52.4237 302.36 52.4228C302.36 52.422 302.36 52.4211 302.36 52.4203C302.36 52.4194 302.36 52.4186 302.36 52.4177C302.36 52.4168 302.36 52.416 302.36 52.4151C302.36 52.4143 302.36 52.4134 302.36 52.4126C302.36 52.4117 302.36 52.4108 302.36 52.41C302.36 52.4091 302.36 52.4083 302.36 52.4074C302.36 52.4066 302.36 52.4057 302.36 52.4049C302.36 52.404 302.36 52.4032 302.36 52.4023C302.36 52.4015 302.36 52.4006 302.36 52.3998C302.36 52.3989 302.36 52.3981 302.36 52.3972C302.36 52.3964 302.36 52.3955 302.36 52.3947C302.36 52.3938 302.36 52.393 302.36 52.3921C302.36 52.3913 302.36 52.3904 302.36 52.3896C302.36 52.3887 302.36 52.3879 302.36 52.387C302.36 52.3862 302.36 52.3854 302.36 52.3845C302.36 52.3837 302.36 52.3828 302.36 52.382C302.36 52.3811 302.36 52.3803 302.36 52.3795C302.36 52.3786 302.36 52.3778 302.36 52.3769C302.36 52.3761 302.36 52.3752 302.36 52.3744C302.36 52.3736 302.36 52.3727 302.36 52.3719C302.36 52.371 302.36 52.3702 302.36 52.3694C302.36 52.3685 302.36 52.3677 302.36 52.3669C302.36 52.366 302.36 52.3652 302.36 52.3643C302.36 52.3635 302.36 52.3627 302.36 52.3618C302.36 52.361 302.36 52.3602 302.36 52.3593C302.36 52.3585 302.36 52.3577 302.36 52.3568C302.36 52.356 302.36 52.3552 302.36 52.3543C302.36 52.3535 302.36 52.3527 302.36 52.3518C302.36 52.351 302.36 52.3502 302.36 52.3493C302.36 52.3485 302.36 52.3477 302.36 52.3469C302.36 52.346 302.36 52.3452 302.36 52.3444C302.36 52.3435 302.36 52.3427 302.36 52.3419C302.36 52.3411 302.36 52.3402 302.36 52.3394C302.36 52.3386 302.36 52.3378 302.36 52.3369C302.36 52.3361 302.36 52.3353 302.36 52.3345C302.36 52.3336 302.36 52.3328 302.36 52.332C302.36 52.3312 302.36 52.3303 302.36 52.3295C302.36 52.3287 302.36 52.3279 302.36 52.3271C302.36 52.3262 302.36 52.3254 302.36 52.3246C302.36 52.3238 302.36 52.323 302.36 52.3221C302.36 52.3213 302.36 52.3205 302.36 52.3197C302.36 52.3189 302.36 52.3181 302.36 52.3172C302.36 52.3164 302.36 52.3156 302.36 52.3148C302.36 52.314 302.36 52.3132 302.36 52.3123C302.36 52.3115 302.36 52.3107 302.36 52.3099C302.36 52.3091 302.36 52.3083 302.36 52.3075C302.36 52.3066 302.36 52.3058 302.36 52.305C302.36 52.3042 302.36 52.3034 302.36 52.3026C302.36 52.3018 302.36 52.301 302.36 52.3002C302.36 52.2993 302.36 52.2985 302.36 52.2977C302.36 52.2969 302.36 52.2961 302.36 52.2953C302.36 52.2945 302.36 52.2937 302.36 52.2929C302.36 52.2921 302.36 52.2913 302.36 52.2905C302.36 52.2897 302.36 52.2889 302.36 52.288C302.36 52.2872 302.36 52.2864 302.36 52.2856C302.36 52.2848 302.36 52.284 302.36 52.2832C302.36 52.2824 302.36 52.2816 302.36 52.2808C302.36 52.28 302.36 52.2792 302.36 52.2784C302.36 52.2776 302.36 52.2768 302.36 52.276C302.36 52.2752 302.36 52.2744 302.36 52.2736C302.36 52.2728 302.36 52.272 302.36 52.2712C302.36 52.2704 302.36 52.2696 302.36 52.2688C302.36 52.268 302.36 52.2672 302.36 52.2664C302.36 52.2656 302.36 52.2649 302.36 52.2641C302.36 52.2633 302.36 52.2625 302.36 52.2617C302.36 52.2609 302.36 52.2601 302.36 52.2593C302.36 52.2585 302.36 52.2577 302.36 52.2569C302.36 52.2561 302.36 52.2553 302.36 52.2546C302.36 52.2538 302.36 52.253 302.36 52.2522C302.36 52.2514 302.36 52.2506 302.36 52.2498C302.36 52.249 302.36 52.2482 302.36 52.2475C302.36 52.2467 302.36 52.2459 302.36 52.2451C302.36 52.2443 302.36 52.2435 302.36 52.2427C302.36 52.2419 302.36 52.2412 302.36 52.2404C302.36 52.2396 302.36 52.2388 302.36 52.238C302.36 52.2372 302.36 52.2365 302.36 52.2357C302.36 52.2349 302.36 52.2341 302.36 52.2333C302.36 52.2326 302.36 52.2318 302.36 52.231C302.36 52.2302 302.36 52.2294 302.36 52.2287C302.36 52.2279 302.36 52.2271 302.36 52.2263C302.36 52.2255 302.36 52.2248 302.36 52.224C302.36 52.2232 302.36 52.2224 302.36 52.2217C302.36 52.2209 302.36 52.2201 302.36 52.2193C302.36 52.2186 302.36 52.2178 302.36 52.217C302.36 52.2162 302.36 52.2155 302.36 52.2147C302.36 52.2139 302.36 52.2131 302.36 52.2124C302.36 52.2116 302.36 52.2108 302.36 52.21C302.36 52.2093 302.36 52.2085 302.36 52.2077C302.36 52.207 302.36 52.2062 302.36 52.2054C302.36 52.2047 302.36 52.2039 302.36 52.2031C302.36 52.2024 302.36 52.2016 302.36 52.2008C302.36 52.2001 302.36 52.1993 302.36 52.1985C302.36 52.1978 302.36 52.197 302.36 52.1962C302.36 52.1955 302.36 52.1947 302.36 52.1939C302.36 52.1932 302.36 52.1924 302.36 52.1916C302.36 52.1909 302.36 52.1901 302.36 52.1894C302.36 52.1886 302.36 52.1878 302.36 52.1871C302.36 52.1863 302.36 52.1855 302.36 52.1848C302.36 52.184 302.36 52.1833 302.36 52.1825C302.36 52.1818 302.36 52.181 302.36 52.1802C302.36 52.1795 302.36 52.1787 302.36 52.178C302.36 52.1772 302.36 52.1764 302.36 52.1757C302.36 52.1749 302.36 52.1742 302.36 52.1734C302.36 52.1727 302.36 52.1719 302.36 52.1712C302.36 52.1704 302.36 52.1697 302.36 52.1689C302.36 52.1682 302.36 52.1674 302.36 52.1666C302.36 52.1659 302.36 52.1651 302.36 52.1644C302.36 52.1636 302.36 52.1629 302.36 52.1621C302.36 52.1614 302.36 52.1606 302.36 52.1599C302.36 52.1591 302.36 52.1584 302.36 52.1577C302.36 52.1569 302.36 52.1562 302.36 52.1554C302.36 52.1547 302.36 52.1539 302.36 52.1532C302.36 52.1524 302.36 52.1517 302.36 52.1509C302.36 52.1502 302.36 52.1494 302.36 52.1487C302.36 52.148 302.36 52.1472 302.36 52.1465C302.36 52.1457 302.36 52.145 302.36 52.1442C302.36 52.1435 302.36 52.1428 302.36 52.142C302.36 52.1413 302.36 52.1405 302.36 52.1398C302.36 52.1391 302.36 52.1383 302.36 52.1376C302.36 52.1368 302.36 52.1361 302.36 52.1354C302.36 52.1346 302.36 52.1339 302.36 52.1332C302.36 52.1324 302.36 52.1317 302.36 52.131C302.36 52.1302 302.36 52.1295 302.36 52.1287C302.36 52.128 302.36 52.1273 302.36 52.1265C302.36 52.1258 302.36 52.1251 302.36 52.1243C302.36 52.1236 302.36 52.1229 302.36 52.1222C302.36 52.1214 302.36 52.1207 302.36 52.12C302.36 52.1192 302.36 52.1185 302.36 52.1178C302.36 52.117 302.36 52.1163 302.36 52.1156C302.36 52.1149 302.36 52.1141 302.36 52.1134C302.36 52.1127 302.36 52.1119 302.36 52.1112C302.36 52.1105 302.36 52.1098 302.36 52.109C302.36 52.1083 302.36 52.1076 302.36 52.1069C302.36 52.1061 302.36 52.1054 302.36 52.1047C302.36 52.104 302.36 52.1033 302.36 52.1025C302.36 52.1018 302.36 52.1011 302.36 52.1004C302.36 52.0996 302.36 52.0989 302.36 52.0982C302.36 52.0975 302.36 52.0968 302.36 52.096C302.36 52.0953 302.36 52.0946 302.36 52.0939C302.36 52.0932 302.36 52.0925 302.36 52.0917C302.36 52.091 302.36 52.0903 302.36 52.0896C302.36 52.0889 302.36 52.0882 302.36 52.0874C302.36 52.0867 302.36 52.086 302.36 52.0853C302.36 52.0846 302.36 52.0839 302.36 52.0832C302.36 52.0824 302.36 52.0817 302.36 52.081C302.36 52.0803 302.36 52.0796 302.36 52.0789C302.36 52.0782 302.36 52.0775 302.36 52.0767C302.36 52.076 302.36 52.0753 302.36 52.0746C302.36 52.0739 302.36 52.0732 302.36 52.0725C302.36 52.0718 302.36 52.0711 302.36 52.0704C302.36 52.0697 302.36 52.069 302.36 52.0683C302.36 52.0675 302.36 52.0668 302.36 52.0661C302.36 52.0654 302.36 52.0647 302.36 52.064C302.36 52.0633 302.36 52.0626 302.36 52.0619C302.36 52.0612 302.36 52.0605 302.36 52.0598C302.36 52.0591 302.36 52.0584 302.36 52.0577C302.36 52.057 302.36 52.0563 302.36 52.0556C302.36 52.0549 302.36 52.0542 302.36 52.0535C302.36 52.0528 302.36 52.0521 302.36 52.0514C302.36 52.0507 302.36 52.05 302.36 52.0493C302.36 52.0486 302.36 52.0479 302.36 52.0472C302.36 52.0465 302.36 52.0458 302.36 52.0451C302.36 52.0444 302.36 52.0438 302.36 52.0431C302.36 52.0424 302.36 52.0417 302.36 52.041C302.36 52.0403 302.36 52.0396 302.36 52.0389C302.36 52.0382 302.36 52.0375 302.36 52.0368C302.36 52.0361 302.36 52.0354 302.36 52.0348C302.36 52.0341 302.36 52.0334 302.36 52.0327C302.36 52.032 302.36 52.0313 302.36 52.0306C302.36 52.0299 302.36 52.0292 302.36 52.0286C302.36 52.0279 302.36 52.0272 302.36 52.0265C302.36 52.0258 302.36 52.0251 302.36 52.0244C302.36 52.0238 302.36 52.0231 302.36 52.0224C302.36 52.0217 302.36 52.021 302.36 52.0203C302.36 52.0197 302.36 52.019 302.36 52.0183C302.36 52.0176 302.36 52.0169 302.36 52.0163C302.36 52.0156 302.36 52.0149 302.36 52.0142C302.36 52.0135 302.36 52.0129 302.36 52.0122C302.36 52.0115 302.36 52.0108 302.36 52.0101C302.36 52.0095 302.36 52.0088 302.36 52.0081C302.36 52.0074 302.36 52.0068 302.36 52.0061C302.36 52.0054 302.36 52.0047 302.36 52.0041C302.36 52.0034 302.36 52.0027 302.36 52.002C302.36 52.0014 302.36 52.0007 302.36 52C302.36 51.9993 302.36 51.9987 302.36 51.998C302.36 51.9973 302.36 51.9967 302.36 51.996C302.36 51.9953 302.36 51.9947 302.36 51.994C302.36 51.9933 302.36 51.9926 302.36 51.992C302.36 51.9913 302.36 51.9906 302.36 51.99C302.36 51.9893 302.36 51.9886 302.36 51.988C302.36 51.9873 302.36 51.9866 302.36 51.986C302.36 51.9853 302.36 51.9846 302.36 51.984C302.36 51.9833 302.36 51.9827 302.36 51.982C302.36 51.9813 302.36 51.9807 302.36 51.98C302.36 51.9793 302.36 51.9787 302.36 51.978C302.36 51.9774 302.36 51.9767 302.36 51.976C302.36 51.9754 302.36 51.9747 302.36 51.9741C302.36 51.9734 302.36 51.9727 302.36 51.9721C302.36 51.9714 302.36 51.9708 302.36 51.9701C302.36 51.9695 302.36 51.9688 302.36 51.9681C302.36 51.9675 302.36 51.9668 302.36 51.9662C302.36 51.9655 302.36 51.9649 302.36 51.9642C302.36 51.9636 302.36 51.9629 302.36 51.9622C302.36 51.9616 302.36 51.9609 302.36 51.9603C302.36 51.9596 302.36 51.959 302.36 51.9583C302.36 51.9577 302.36 51.957 302.36 51.9564C302.36 51.9557 302.36 51.9551 302.36 51.9544C302.36 51.9538 302.36 51.9531 302.36 51.9525C302.36 51.9518 302.36 51.9512 302.36 51.9505C302.36 51.9499 302.36 51.9493 302.36 51.9486C302.36 51.948 302.36 51.9473 302.36 51.9467C302.36 51.946 302.36 51.9454 302.36 51.9447C302.36 51.9441 302.36 51.9434 302.36 51.9428C302.36 51.9422 302.36 51.9415 302.36 51.9409C302.36 51.9402 302.36 51.9396 302.36 51.939C302.36 51.9383 302.36 51.9377 302.36 51.937C302.36 51.9364 302.36 51.9358 302.36 51.9351C302.36 51.9345 302.36 51.9338 302.36 51.9332C302.36 51.9326 302.36 51.9319 302.36 51.9313C302.36 51.9307 302.36 51.93 302.36 51.9294C302.36 51.9287 302.36 51.9281 302.36 51.9275C302.36 51.9268 302.36 51.9262 302.36 51.9256C302.36 51.9249 302.36 51.9243 302.36 51.9237C302.36 51.923 302.36 51.9224 302.36 51.9218C302.36 51.9211 302.36 51.9205 302.36 51.9199C302.36 51.9193 302.36 51.9186 302.36 51.918C302.36 51.9174 302.36 51.9167 302.36 51.9161C302.36 51.9155 302.36 51.9148 302.36 51.9142C302.36 51.9136 302.36 51.913 302.36 51.9123C302.36 51.9117 302.36 51.9111 302.36 51.9105C302.36 51.9098 302.36 51.9092 302.36 51.9086C302.36 51.908 302.36 51.9073 302.36 51.9067C302.36 51.9061 302.36 51.9055 302.36 51.9048C302.36 51.9042 302.36 51.9036 302.36 51.903C302.36 51.9024 302.36 51.9017 302.36 51.9011C302.36 51.9005 302.36 51.8999 302.36 51.8993C302.36 51.8986 302.36 51.898 302.36 51.8974C302.36 51.8968 302.36 51.8962 302.36 51.8955C302.36 51.8949 302.36 51.8943 302.36 51.8937C302.36 51.8931 302.36 51.8925 302.36 51.8918C302.36 51.8912 302.36 51.8906 302.36 51.89C302.36 51.8894 302.36 51.8888 302.36 51.8882C302.36 51.8875 302.36 51.8869 302.36 51.8863C302.36 51.8857 302.36 51.8851 302.36 51.8845C302.36 51.8839 302.36 51.8833 302.36 51.8826C302.36 51.882 302.36 51.8814 302.36 51.8808C302.36 51.8802 302.36 51.8796 302.36 51.879C302.36 51.8784 302.36 51.8778 302.36 51.8772C302.36 51.8766 302.36 51.876 302.36 51.8754C302.36 51.8747 302.36 51.8741 302.36 51.8735C302.36 51.8729 302.36 51.8723 302.36 51.8717C302.36 51.8711 302.36 51.8705 302.36 51.8699C302.36 51.8693 302.36 51.8687 302.36 51.8681C302.36 51.8675 302.36 51.8669 302.36 51.8663C302.36 51.8657 302.36 51.8651 302.36 51.8645C302.36 51.8639 302.36 51.8633 302.36 51.8627C302.36 51.8621 302.36 51.8615 302.36 51.8609C302.36 51.8603 302.36 51.8597 302.36 51.8591C302.36 51.8585 302.36 51.8579 302.36 51.8573C302.36 51.8567 302.36 51.8561 302.36 51.8555C302.36 51.8549 302.36 51.8543 302.36 51.8537C302.36 51.8531 302.36 51.8526 302.36 51.852C302.36 51.8514 302.36 51.8508 302.36 51.8502C302.36 51.8496 302.36 51.849 302.36 51.8484C302.36 51.8478 302.36 51.8472 302.36 51.8466C302.36 51.846 302.36 51.8455 302.36 51.8449C302.36 51.8443 302.36 51.8437 302.36 51.8431C302.36 51.8425 302.36 51.8419 302.36 51.8413C302.36 51.8408 302.36 51.8402 302.36 51.8396C302.36 51.839 302.36 51.8384 302.36 51.8378C302.36 51.8372 302.36 51.8367 302.36 51.8361C302.36 51.8355 302.36 51.8349 302.36 51.8343C302.36 51.8337 302.36 51.8332 302.36 51.8326C302.36 51.832 302.36 51.8314 302.36 51.8308C302.36 51.8303 302.36 51.8297 302.36 51.8291C302.36 51.8285 302.36 51.8279 302.36 51.8274C302.36 51.8268 302.36 51.8262 302.36 51.8256C302.36 51.825 302.36 51.8245 302.36 51.8239C302.36 51.8233 302.36 51.8227 302.36 51.8222C302.36 51.8216 302.36 51.821 302.36 51.8204C302.36 51.8199 302.36 51.8193 302.36 51.8187C302.36 51.8181 302.36 51.8176 302.36 51.817C302.36 51.8164 302.36 51.8158 302.36 51.8153C302.36 51.8147 302.36 51.8141 302.36 51.8136C302.36 51.813 302.36 51.8124 302.36 51.8118C302.36 51.8113 302.36 51.8107 302.36 51.8101C302.36 51.8096 302.36 51.809 302.36 51.8084C302.36 51.8079 302.36 51.8073 302.36 51.8067C302.36 51.8062 302.36 51.8056 302.36 51.805C302.36 51.8045 302.36 51.8039 302.36 51.8033C302.36 51.8028 302.36 51.8022 302.36 51.8017C302.36 51.8011 302.36 51.8005 302.36 51.8C302.36 51.7994 302.36 51.7988 302.36 51.7983C302.36 51.7977 302.36 51.7972 302.36 51.7966C302.36 51.796 302.36 51.7955 302.36 51.7949C302.36 51.7944 302.36 51.7938 302.36 51.7932C302.36 51.7927 302.36 51.7921 302.36 51.7916C302.36 51.791 302.36 51.7904 302.36 51.7899C302.36 51.7893 302.36 51.7888 302.36 51.7882C302.36 51.7877 302.36 51.7871 302.36 51.7866C302.36 51.786 302.36 51.7854 302.36 51.7849C302.36 51.7843 302.36 51.7838 302.36 51.7832C302.36 51.7827 302.36 51.7821 302.36 51.7816C302.36 51.781 302.36 51.7805 302.36 51.7799C302.36 51.7794 302.36 51.7788 302.36 51.7783C302.36 51.7777 302.36 51.7772 302.36 51.7766C302.36 51.7761 302.36 51.7755 302.36 51.775C302.36 51.7744 302.36 51.7739 302.36 51.7733C302.36 51.7728 302.36 51.7723 302.36 51.7717C302.36 51.7712 302.36 51.7706 302.36 51.7701C302.36 51.7695 302.36 51.769 302.36 51.7684C302.36 51.7679 302.36 51.7674 302.36 51.7668C302.36 51.7663 302.36 51.7657 302.36 51.7652C302.36 51.7647 302.36 51.7641 302.36 51.7636C302.36 51.763 302.36 51.7625 302.36 51.762C302.36 51.7614 302.36 51.7609 302.36 51.7603C302.36 51.7598 302.36 51.7593 302.36 51.7587C302.36 51.7582 302.36 51.7577 302.36 51.7571C302.36 51.7566 302.36 51.756 302.36 51.7555C302.36 51.755 302.36 51.7544 302.36 51.7539C302.36 51.7534 302.36 51.7528 302.36 51.7523C302.36 51.7518 302.36 51.7512 302.36 51.7507C302.36 51.7502 302.36 51.7496 302.36 51.7491C302.36 51.7486 302.36 51.748 302.36 51.7475C302.36 51.747 302.36 51.7465 302.36 51.7459C302.36 51.7454 302.36 51.7449 302.36 51.7443C302.36 51.7438 302.36 51.7433 302.36 51.7428C302.36 51.7422 302.36 51.7417 302.36 51.7412C302.36 51.7407 302.36 51.7401 302.36 51.7396C302.36 51.7391 302.36 51.7386 302.36 51.738C302.36 51.7375 302.36 51.737 302.36 51.7365C302.36 51.7359 302.36 51.7354 302.36 51.7349C302.36 51.7344 302.36 51.7339 302.36 51.7333H300.36ZM300.364 52.8503C300.319 53.3947 300.294 53.8484 300.294 54.2H302.294C302.294 53.9294 302.313 53.5387 302.357 53.0164L300.364 52.8503ZM300.294 54.2V88H302.294V54.2H300.294ZM301.294 87H279.294V89H301.294V87ZM280.294 88V52.2667H278.294V88H280.294ZM280.293 52.2986C280.364 50.0873 279.938 48.2302 278.822 46.9185C277.683 45.5806 275.991 45 273.96 45V47C275.619 47 276.66 47.4639 277.299 48.2148C277.96 48.992 278.357 50.2683 278.294 52.2348L280.293 52.2986ZM273.96 45C273.563 45 273.166 45.0248 272.77 45.0744L273.018 47.0589C273.333 47.0196 273.647 47 273.96 47V45ZM272.752 45.0767C272.311 45.1398 271.874 45.2919 271.447 45.5056L272.341 47.2944C272.625 47.1526 272.854 47.0824 273.035 47.0566L272.752 45.0767ZM271.447 45.5056C271.102 45.6779 270.841 45.7974 270.656 45.8715L271.398 47.7285C271.658 47.6248 271.974 47.4777 272.341 47.2944L271.447 45.5056ZM270.58 45.9056C270.341 46.0252 270.006 46.2347 269.606 46.5013L270.715 48.1654C271.115 47.8986 271.358 47.7525 271.474 47.6944L270.58 45.9056ZM269.56 46.5333C269.202 46.8018 268.979 46.9634 268.872 47.0346L269.982 48.6987C270.142 48.5922 270.407 48.3982 270.76 48.1333L269.56 46.5333ZM268.72 47.1596C268.722 47.158 268.708 47.1712 268.669 47.2058C268.632 47.2375 268.583 47.2792 268.52 47.3318C268.394 47.4368 268.222 47.5766 268.002 47.7525L269.252 49.3142C269.676 48.9745 269.996 48.7115 270.134 48.5738L268.72 47.1596ZM267.963 47.7859C267.58 48.1258 267.325 48.3547 267.253 48.4262L268.668 49.8404C268.666 49.8415 268.709 49.8019 268.829 49.6933C268.938 49.5953 269.092 49.458 269.291 49.2807L267.963 47.7859ZM266.96 49.1333V88H268.96V49.1333H266.96ZM340.865 79L340.026 78.4558L340.022 78.4616L340.865 79ZM313.532 82.4667L312.831 83.1805L312.831 83.1805L313.532 82.4667ZM313.598 37.6667L314.328 38.351L314.331 38.3479L313.598 37.6667ZM359.398 37.3333L358.672 38.0204L358.678 38.0271L359.398 37.3333ZM358.998 82.0667L358.295 81.3564L358.291 81.3596L358.998 82.0667ZM336.398 82.4C338.683 82.4 340.495 81.4363 341.708 79.5384L340.022 78.4616C339.19 79.7637 338.025 80.4 336.398 80.4V82.4ZM341.704 79.5442C342.913 77.6801 343.465 75.2217 343.465 72.2667H341.465C341.465 75.0006 340.95 77.031 340.026 78.4558L341.704 79.5442ZM343.465 72.2667V51.2H341.465V72.2667H343.465ZM343.465 51.2C343.465 46.8198 342.953 43.3915 341.836 41.0233C341.271 39.8261 340.534 38.8609 339.592 38.1958C338.642 37.5242 337.541 37.2 336.332 37.2V39.2C337.167 39.2 337.855 39.4175 338.438 39.8292C339.03 40.2475 339.57 40.9072 340.027 41.8767C340.955 43.8418 341.465 46.9136 341.465 51.2H343.465ZM336.332 37.2C334.096 37.2 332.296 38.136 331.04 39.9678L332.69 41.0989C333.567 39.8195 334.745 39.2 336.332 39.2V37.2ZM331.04 39.9678C329.815 41.7547 329.265 44.1833 329.265 47.1333H331.265C331.265 44.3945 331.782 42.4231 332.69 41.0989L331.04 39.9678ZM329.265 47.1333V68.8H331.265V47.1333H329.265ZM329.265 68.8C329.265 73.0491 329.777 76.3821 330.899 78.6877C331.467 79.8542 332.208 80.7925 333.15 81.4376C334.1 82.0879 335.196 82.4 336.398 82.4V80.4C335.557 80.4 334.864 80.1871 334.28 79.7874C333.689 79.3825 333.152 78.7458 332.698 77.8123C331.775 75.9179 331.265 72.9509 331.265 68.8H329.265ZM335.865 88.4C325.811 88.4 318.677 86.1134 314.232 81.7529L312.831 83.1805C317.809 88.0644 325.564 90.4 335.865 90.4V88.4ZM314.232 81.7529C309.794 77.3987 307.465 70.3393 307.465 60.3333H305.465C305.465 70.594 307.847 78.2902 312.831 83.1805L314.232 81.7529ZM307.465 60.3333C307.465 50.4307 309.81 43.164 314.328 38.351L312.869 36.9823C307.876 42.3027 305.465 50.1471 305.465 60.3333H307.465ZM314.331 38.3479C318.816 33.5272 326.218 31 336.798 31V29C325.957 29 317.892 31.584 312.866 36.9855L314.331 38.3479ZM336.798 31C347.117 31 354.321 33.4186 358.672 38.0203L360.125 36.6463C355.231 31.4703 347.369 29 336.798 29V31ZM358.678 38.0271C363.097 42.6138 365.398 49.6723 365.398 59.4H367.398C367.398 49.3943 365.034 41.7417 360.119 36.6396L358.678 38.0271ZM365.398 59.4C365.398 69.4809 362.965 76.7282 358.295 81.3564L359.702 82.777C364.899 77.6273 367.398 69.7635 367.398 59.4H365.398ZM358.291 81.3596C353.668 85.9826 346.27 88.4 335.865 88.4V90.4C346.527 90.4 354.551 87.9285 359.706 82.7738L358.291 81.3596ZM400.728 87.2L400.97 86.2299L400.97 86.2299L400.728 87.2ZM395.128 85.2L395.575 84.3056L394.128 83.582V85.2H395.128ZM395.128 108.133V109.133H396.128V108.133H395.128ZM373.661 108.133H372.661V109.133H373.661V108.133ZM373.661 44.8667H374.661V44.3085L374.186 44.0155L373.661 44.8667ZM369.661 42.4H368.661V42.9582L369.136 43.2512L369.661 42.4ZM369.661 35.2667L369.396 34.3023L368.661 34.5041V35.2667H369.661ZM383.994 31.3333V30.3333H383.86L383.73 30.369L383.994 31.3333ZM395.128 31.3333H396.128V30.3333H395.128V31.3333ZM395.128 35.8H394.128V38.2618L395.844 36.4974L395.128 35.8ZM400.928 31.6667L400.487 30.7687L400.487 30.7687L400.928 31.6667ZM424.994 37.5333L424.168 38.0965L424.171 38.1014L424.994 37.5333ZM428.794 70L429.761 70.2569L429.762 70.2539L428.794 70ZM424.661 79.3333L423.831 78.7755L423.831 78.7755L424.661 79.3333ZM417.594 85.7333L418.063 86.6165L418.068 86.6138L417.594 85.7333ZM404.861 44.8L404.035 45.3633L404.039 45.3697L404.043 45.376L404.861 44.8ZM395.128 43.2L394.631 42.3318L394.128 42.6197V43.2H395.128ZM395.128 78.4H394.128V79.1808L394.885 79.3701L395.128 78.4ZM396.594 78.6667L396.495 79.6617L396.504 79.6626L396.594 78.6667ZM407.794 87C405.285 87 403.012 86.7403 400.97 86.2299L400.485 88.1701C402.71 88.7264 405.148 89 407.794 89V87ZM400.97 86.2299C398.892 85.7104 397.097 85.0665 395.575 84.3056L394.68 86.0944C396.358 86.9335 398.296 87.623 400.485 88.1701L400.97 86.2299ZM394.128 85.2V108.133H396.128V85.2H394.128ZM395.128 107.133H373.661V109.133H395.128V107.133ZM374.661 108.133V44.8667H372.661V108.133H374.661ZM374.186 44.0155L370.186 41.5488L369.136 43.2512L373.136 45.7178L374.186 44.0155ZM370.661 42.4V35.2667H368.661V42.4H370.661ZM369.926 36.231L384.259 32.2977L383.73 30.369L369.396 34.3023L369.926 36.231ZM383.994 32.3333H395.128V30.3333H383.994V32.3333ZM394.128 31.3333V35.8H396.128V31.3333H394.128ZM395.844 36.4974C397.357 34.943 399.194 33.6302 401.368 32.5646L400.487 30.7687C398.128 31.9253 396.099 33.3681 394.411 35.1026L395.844 36.4974ZM401.368 32.5646C403.473 31.5326 405.962 31 408.861 31V29C405.716 29 402.916 29.5785 400.487 30.7687L401.368 32.5646ZM408.861 31C415.942 31 420.972 33.4063 424.168 38.0964L425.821 36.9702C422.172 31.6159 416.447 29 408.861 29V31ZM424.171 38.1014C427.481 42.8963 429.194 49.6258 429.194 58.4H431.194C431.194 49.3964 429.441 42.2148 425.817 36.9653L424.171 38.1014ZM429.194 58.4C429.194 62.5035 428.736 66.2838 427.827 69.7461L429.762 70.2539C430.719 66.6051 431.194 62.652 431.194 58.4H429.194ZM427.828 69.7431C426.92 73.159 425.585 76.1662 423.831 78.7755L425.491 79.8912C427.382 77.0783 428.802 73.8633 429.761 70.2569L427.828 69.7431ZM423.831 78.7755C422.1 81.3511 419.867 83.374 417.12 84.8529L418.068 86.6138C421.1 84.9816 423.578 82.7378 425.491 79.8912L423.831 78.7755ZM417.125 84.8502C414.445 86.2741 411.344 87 407.794 87V89C411.623 89 415.055 88.2148 418.063 86.6164L417.125 84.8502ZM397.994 79.7333C401.272 79.7333 403.838 78.4543 405.531 75.8638C407.176 73.3471 407.928 69.6993 407.928 65.0667H405.928C405.928 69.5452 405.19 72.7306 403.857 74.7695C402.573 76.7345 400.672 77.7333 397.994 77.7333V79.7333ZM407.928 65.0667V53.7333H405.928V65.0667H407.928ZM407.928 53.7333C407.928 49.6522 407.231 46.4276 405.678 44.224L404.043 45.376C405.246 47.0835 405.928 49.8145 405.928 53.7333H407.928ZM405.687 44.2367C404.191 42.0429 402.165 40.8667 399.661 40.8667V42.8667C401.423 42.8667 402.864 43.6459 404.035 45.3633L405.687 44.2367ZM399.661 40.8667C397.986 40.8667 396.305 41.3756 394.631 42.3318L395.624 44.0682C397.061 43.2467 398.403 42.8667 399.661 42.8667V40.8667ZM394.128 43.2V78.4H396.128V43.2H394.128ZM394.885 79.3701C395.455 79.5127 395.993 79.6115 396.495 79.6617L396.694 77.6716C396.307 77.633 395.867 77.554 395.37 77.4299L394.885 79.3701ZM396.504 79.6626C397.02 79.7095 397.517 79.7333 397.994 79.7333V77.7333C397.583 77.7333 397.147 77.7128 396.685 77.6708L396.504 79.6626Z" fill="black" mask="url(#path-1-outside-1_201_2)"/>
</svg>
